
on_actions = {
    #   ██████╗ ██╗     ██╗████████╗███████╗██╗  ██╗██████╗ ██╗███████╗ ██████╗ 
    #   ██╔══██╗██║     ██║╚══██╔══╝╚══███╔╝██║ ██╔╝██╔══██╗██║██╔════╝██╔════╝ 
    #   ██████╔╝██║     ██║   ██║     ███╔╝ █████╔╝ ██████╔╝██║█████╗  ██║  ███╗
    #   ██╔══██╗██║     ██║   ██║    ███╔╝  ██╔═██╗ ██╔══██╗██║██╔══╝  ██║   ██║
    #   ██████╔╝███████╗██║   ██║   ███████╗██║  ██╗██║  ██║██║███████╗╚██████╔╝
    #   ╚═════╝ ╚══════╝╚═╝   ╚═╝   ╚══════╝╚═╝  ╚═╝╚═╝  ╚═╝╚═╝╚══════╝ ╚═════╝ 

    on_startup = {
        effect = {
            if = { 
                limit = { has_start_date > 1939.01.01 }
                BKB = { country_event = { id = blitzkrieg.1 } }
            }
            
        }
    }
}