version="187.3"
tags={
	"National Focuses"
}
replace_path="common/ai_strategy_plans"
replace_path="common/units/names_divisions"
replace_path="common/units/names_ships"
replace_path="common/units/codenames_operatives"
replace_path="history/countries"
name="DEV based multiplayer (in fink we trust) (TIFU)"
supported_version="1.13.*"
picture="thumbnail.png"