﻿focus_tree = {
	id = japan_wtt_focus
	
	country = {
		factor = 0
		modifier = {
			add = 20
			tag = JAP
		}
	}
	

	default = no

	continuous_focus_position = { x = 20 y = 1200 }

	
	
	focus = {
		id = JAP_purge_the_kodoha_faction
		icon = goal_JAP_purge_the_kodoha_faction2
		cost = 10

		ai_will_do = {
			factor = 4
		}

		available = {

		}

		bypass = {

		}

		cancel_if_invalid = yes
		continue_if_invalid = no
		available_if_capitulated = no

		search_filters = { FOCUS_FILTER_STABILITY FOCUS_FILTER_POLITICAL }
		completion_reward = {
			add_stability = 0.1
			hidden_effect = {
				if = {
					limit = {
						has_game_rule = {
							rule = obsolete_focus_branches_visibility
							option = HIDE
						}
					}
					mark_focus_tree_layout_dirty = no
				}
			}
		}
	}

	focus = {
		id = JAP_liaison_conference
		icon = JAP_tokyo_conf2
		prerequisite = { focus = JAP_purge_the_kodoha_faction }
		x = -1
		y = 1
		relative_position_id = JAP_purge_the_kodoha_faction

		cost = 5

		ai_will_do = {
			factor = 2
		}

		available = {

		}

		bypass = {

		}

		cancel_if_invalid = yes
		continue_if_invalid = no
		available_if_capitulated = no

		completion_reward = {
			add_ideas = JAP_liaison_conference
			every_army_leader = {
				add_planning = 1
			}
		}
	}

	focus = {
		id = JAP_greater_east_asian_co_prosperity_sphere
		icon = JAP_co_prosperity_sphere2
		prerequisite = { focus = JAP_liaison_conference }
		x = -1
		y = 1
		relative_position_id = JAP_liaison_conference

		cost = 5

		ai_will_do = {
			factor = 2
		}

		available = {
			is_subject = no
		}

		bypass = {

		}

		cancel_if_invalid = yes
		continue_if_invalid = no
		available_if_capitulated = no

		completion_reward = {
			set_rule = { can_create_factions = yes }
			create_faction = JAP_greater_east_asian_co_prosperity_sphere

			hidden_effect = {
				#12W
				set_temp_variable = { unitamnt = 100 }
				613 = {
					while_loop_effect = {
						limit = {
							check_variable = { unitamnt > 0 }
						}
						create_unit = {
							division = "division_template = \"Sanjiao Jun\" start_experience_factor = 0.0 start_equipment_factor = 1.0" 
							owner = CHI
						}
						subtract_from_temp_variable = { unitamnt = 1 }
					}
				}
				#8W
				set_temp_variable = { unitamnt = 50 }
				613 = {
					while_loop_effect = {
						limit = {
							check_variable = { unitamnt > 0 }
						}
						create_unit = {
							division = "division_template = \"Juntuán\" start_experience_factor = 0.0 start_equipment_factor = 1.0" 
							owner = CHI
						}
						subtract_from_temp_variable = { unitamnt = 1 }
					}
				}
				CHI = {
					remove_ideas = HMM_dont_produce
					add_equipment_to_stockpile = { #until the efficiency rises they shall recieve a small surge of war crime material
						type = infantry_equipment
						amount = 80000
						producer = CHI
					}
				}
			}
		}
	}

	focus = {
		id = JAP_intervene_in_china
		icon = goal_JAP_exploit_china2
		prerequisite = { focus = JAP_greater_east_asian_co_prosperity_sphere }
		will_lead_to_war_with = CHI
		x = -1
		y = 1
		relative_position_id = JAP_greater_east_asian_co_prosperity_sphere

		cost = 10

		available = {
			NOT = { has_war_with = CHI }
		}

		will_lead_to_war_with = CHI

		cancel_if_invalid = yes
		continue_if_invalid = no
		available_if_capitulated = no

		ai_will_do = {
			factor = 10
			modifier = {
				factor = 0
				date < 1937.1.1
			}
		}

		search_filters = { FOCUS_FILTER_ANNEXATION }
		completion_reward = {
			declare_war_on = { type = annex_everything target = CHI }
			add_named_threat = { threat = 1 name = JAP_intervene_in_china }
			add_ideas = JAP_intervene_in_china_5
			unlock_decision_tooltip = JAP_china_step_up_war_effort
		}
	}

	focus = {
		id = JAP_secure_china
		icon = goal_JAP_non_aggression_pact_with_the_china2
		prerequisite = { focus = JAP_intervene_in_china }
		x = 0
		y = 1
		relative_position_id = JAP_intervene_in_china

		cost = 10

		ai_will_do = {
			factor = 3
			modifier = {
				factor = 0
				threat < 0.9
			}
		}

		available = {
			CHI = {
				surrender_progress > 0.3
			}
			has_war_with = USA
		}

		bypass = {
			OR = {
				NOT = { JAP_has_idea_JAP_intervene_in_china = yes }
				CHI = { has_capitulated = yes }
			}
		}

		cancel_if_invalid = yes
		continue_if_invalid = no
		available_if_capitulated = no

		search_filters = { FOCUS_FILTER_WAR_SUPPORT }
		completion_reward = {
			JAP_intervene_in_china_remove = yes
			add_named_threat = { threat = 15 name = JAP_secure_china }		
			USA = { add_war_support = 0.05 }	
			unlock_decision_tooltip = JAP_ichi_go
		}
	}

	focus = {
		id = JAP_develop_chinese_resources
		icon = goal_JAP_china_project2
		prerequisite = { focus = JAP_secure_china }
		x = 0
		y = 2
		relative_position_id = JAP_intervene_in_china

		cost = 10

		ai_will_do = {
			factor = 4
		}

		available = {
			has_full_control_of_state = 605
			has_full_control_of_state = 325
		}

		bypass = {

		}

		cancel_if_invalid = yes
		continue_if_invalid = no
		available_if_capitulated = no

		search_filters = { FOCUS_FILTER_INDUSTRY }
		completion_reward = {
			605 = {
				add_resource = {
					type = aluminium
					amount = 20
				}
			}
			325 = {
				add_resource = {
					type = aluminium
					amount = 12
				}
			}
			unlock_decision_category_tooltip = prospect_for_resources
		}
	}

	focus = {
		id = JAP_strike_south_doctrine
		icon = JAP_target_indochina2
		prerequisite = { focus = JAP_greater_east_asian_co_prosperity_sphere }
		prerequisite = { focus = JAP_sign_tripartite_pact }
		x = 0
		y = 2
		relative_position_id = JAP_liaison_conference

		cost = 10

		ai_will_do = {
			factor = 2
		}

		available = {
			FRA = {
				OR = {
					has_capitulated = yes
					exists = no 
				}
			}
		}

		bypass = { }

		cancel_if_invalid = yes
		continue_if_invalid = no
		available_if_capitulated = no

		search_filters = { FOCUS_FILTER_RESEARCH FOCUS_FILTER_ANNEXATION }
		completion_reward = {
			add_doctrine_cost_reduction = {
				name = JAP_strike_south_doctrine
				cost_reduction = 0.5
				uses = 4
				category = naval_doctrine	
			}
			transfer_state = 670
			670 = {
				add_building_construction = {
					type = air_base
					level = 10
					instant_build = yes
				}
			}
			transfer_state = 671
			671 = {
				add_building_construction = {
					type = air_base
					level = 10
					instant_build = yes
				}
			}
			transfer_state = 741
			741 = {
				add_building_construction = {
					type = air_base
					level = 10
					instant_build = yes
				}
			}
			transfer_state = 286
			286 = {
				add_building_construction = {
					type = air_base
					level = 10
					instant_build = yes
				}
			}

			add_timed_idea = { idea = JAP_strike_south_preparations days = 180 }
		}
	}

	focus = {
		id = JAP_bypass_the_philippines
		icon = GFX_goal_generic_position_armies
		prerequisite = { focus = JAP_alliance_with_siam }
		x = 0
		y = 1
		relative_position_id = JAP_alliance_with_siam

		cost = 10

		ai_will_do = {
			factor = 3
		}

		available = {

		}

		bypass = {

		}

		cancel_if_invalid = yes
		continue_if_invalid = no
		available_if_capitulated = no

		search_filters = { FOCUS_FILTER_RESEARCH }
		completion_reward = {
			add_tech_bonus = {
				name = JAP_bypass_the_philippines
				bonus = 1.0
				uses = 1
				category = tp_tech
			}
		}
	}

	focus = {
		id = JAP_strike_on_the_southern_resource_area
		icon = GFX_focus_jap_strike_south
		prerequisite = { focus = JAP_bypass_the_philippines }
		x = 0
		y = 1
		relative_position_id = JAP_bypass_the_philippines

		will_lead_to_war_with = ENG
		will_lead_to_war_with = HOL

		cost = 1

		ai_will_do = {
			factor = 1
			modifier = {
				factor = 0
				date < 1941.1.1
			}
		}

		available = {
			date > 1941.1.1
		}

		cancel_if_invalid = yes
		continue_if_invalid = no
		available_if_capitulated = no

		search_filters = { FOCUS_FILTER_ANNEXATION }
		completion_reward = {
			declare_war_on = { type = annex_everything    target = USA }
			ENG = { add_to_faction = USA }
			ENG = { add_to_war = { targeted_alliance = USA enemy = JAP } } 
			AST = { add_to_war = { targeted_alliance = USA enemy = JAP } } 
			RAJ = { add_to_war = { targeted_alliance = USA enemy = JAP } } 
			FRA = { add_to_war = { targeted_alliance = USA enemy = JAP } }
			HOL = { add_to_war = { targeted_alliance = USA enemy = JAP } }

			GER = { declare_war_on = { type = annex_everything    target = USA } }  
			ROM = { add_to_war = { targeted_alliance = GER enemy = USA } } 
			HUN = { add_to_war = { targeted_alliance = GER enemy = USA } }
			BUL = { add_to_war = { targeted_alliance = GER enemy = USA } }	
			ITA = { add_to_war = { targeted_alliance = GER enemy = USA } }
			
			add_timed_idea = { idea = JAP_tora_tora_tora_idea days = 180 }
		}
	}

	focus = {
		id = JAP_alliance_with_siam
		icon = goal_JAP_ultimatum_to_thailand2
		prerequisite = { focus = JAP_strike_south_doctrine }
		x = 0
		y = 1
		relative_position_id = JAP_strike_south_doctrine

		cost = 10

		ai_will_do = {
			factor = 3
		}

		available = { }

		bypass = { }

		cancel_if_invalid = yes
		continue_if_invalid = no
		available_if_capitulated = no


		completion_reward = {
			869 = {
				add_building_construction = {
					type = air_base
					level = 10
					instant_build = yes
				}
				add_building_construction = {
					type = anti_air_building
					level = 2
					instant_build = yes
				}
			}
			868 = {
				add_building_construction = {
					type = air_base
					level = 10
					instant_build = yes
				}
				add_building_construction = {
					type = anti_air_building
					level = 2
					instant_build = yes
				}
			}
			289 = {
				add_building_construction = {
					type = air_base
					level = 10
					instant_build = yes
				}
				add_building_construction = {
					type = anti_air_building
					level = 2
					instant_build = yes
				}
			}
			724 = {
				add_building_construction = {
					type = air_base
					level = 10
					instant_build = yes
				}
				add_building_construction = {
					type = anti_air_building
					level = 2
					instant_build = yes
				}
			}
		}
	}

	focus = {
		id = JAP_exploit_the_southern_resource_area
		icon = goal_JAP_exploit_the_south2
		prerequisite = { focus = JAP_strike_on_the_southern_resource_area }
		prerequisite = { focus = JAP_coal_liquification }
		x = 1
		y = 1
		relative_position_id = JAP_strike_on_the_southern_resource_area

		cost = 10

		ai_will_do = {
			factor = 10
		}

		available = {
			OR = {
				has_full_control_of_state = 333
				has_full_control_of_state = 672
				has_full_control_of_state = 334
			}
			has_full_control_of_state = 336
			has_full_control_of_state = 671
		}

		bypass = {

		}

		cancel_if_invalid = yes
		continue_if_invalid = no
		available_if_capitulated = no


		search_filters = { FOCUS_FILTER_INDUSTRY }
		completion_reward = {
			336 = {
				add_resource = {
					type = aluminium
					amount = 12
				}
				add_building_construction = {
					type = infrastructure
					level = 1
					instant_build = yes
				}
			}
			333 = {
				if = {
					limit = { is_fully_controlled_by = ROOT }
					add_building_construction = {
						type = infrastructure
						level = 1
						instant_build = yes
					}
				}
			}
			672 = {
				if = {
					limit = { is_fully_controlled_by = ROOT }
					add_building_construction = {
						type = infrastructure
						level = 1
						instant_build = yes
					}
				}
			}
			334 = {
				if = {
					limit = { is_fully_controlled_by = ROOT }
					add_building_construction = {
						type = infrastructure
						level = 1
						instant_build = yes
					}
				}
			}
			671 = {
				add_resource = {
					type = aluminium
					amount = 6
				}
			}
			if = {
				limit = { has_dlc = "Waking the Tiger" }
				unlock_decision_category_tooltip = prospect_for_resources
			}
		}
	}

	focus = {
		id = JAP_sign_tripartite_pact
		icon = goal_JAP_sign_the_tripartite_pact2
		prerequisite = { focus = JAP_liaison_conference }
		x = 1
		y = 1
		relative_position_id = JAP_liaison_conference

		cost = 5

		ai_will_do = {
			factor = 3
			modifier = {
				factor = 0
				NOT = { GER = { is_in_faction_with = ITA } }
			}
		}

		available = {
			any_country = {
				original_tag = GER
				has_government = fascism
				NOT = { has_war_with = ROOT }
			}
			any_country = {
				original_tag = ITA
				has_government = fascism
				NOT = { has_war_with = ROOT }
			}
		}

		cancel_if_invalid = yes
		continue_if_invalid = no
		available_if_capitulated = no


		completion_reward = {
            add_political_power = 150
			random_country = {
				limit = {
					original_tag = GER
					has_government = fascism
				}
				country_event = { id = wtt_japan.109 days = 1 }
			}
		}
	}

	focus = {
		id = JAP_guide_the_zaibatsus
		icon = goal_JAP_guide_the_zaibatsus2
		prerequisite = { focus = JAP_purge_the_kodoha_faction }
		x = 1
		y = 1
		relative_position_id = JAP_purge_the_kodoha_faction


		cost = 10

		ai_will_do = {
			factor = 3
		}

		available = {

		}

		bypass = {

		}

		cancel_if_invalid = yes
		continue_if_invalid = no
		available_if_capitulated = no

		search_filters = { FOCUS_FILTER_INDUSTRY }
		complete_tooltip = {
			random_state = {
				limit = {
					has_state_flag = JAP_zaibatsus_factories
				}
				add_building_construction = {
					type = industrial_complex
					level = 2
					instant_build = yes
				}
			}
			swap_ideas = {
				remove_idea = JAP_zaibatsus
				add_idea = JAP_guide_the_zaibatsus				
			}
		}

		completion_reward = {
			random_owned_controlled_state = {
				limit = {
					ROOT = { has_full_control_of_state = PREV }
					is_core_of = ROOT
					not = {
						OR = {
							state = 646
							state = 645
							state = 555
						}
					}
					free_building_slots = {
						building = industrial_complex
						size > 1
						include_locked = yes
					}
				}
				add_extra_state_shared_building_slots = 2
				add_building_construction = {
					type = industrial_complex
					level = 2
					instant_build = yes
				}
				set_state_flag = JAP_zaibatsus_factories
			}
			swap_ideas = {
				remove_idea = JAP_zaibatsus
				add_idea = JAP_guide_the_zaibatsus
			}
		}
	}

	focus = {
		id = JAP_nationalize_war_industry
		icon = goal_JAP_invest_in_toyota_car_manufacturing2
		prerequisite = { focus = JAP_guide_the_zaibatsus }
		prerequisite = { focus = JAP_national_mobilization_law }
		x = 0
		y = 2
		relative_position_id = JAP_guide_the_zaibatsus

		cost = 10

		ai_will_do = {
			factor = 3
		}

		available = {

		}

		bypass = {

		}

		cancel_if_invalid = yes
		continue_if_invalid = no
		available_if_capitulated = no

		search_filters = { FOCUS_FILTER_INDUSTRY }

		completion_reward = {
			529 = {
				add_extra_state_shared_building_slots = 2
				add_building_construction = {
					type = arms_factory
					level = 2
					instant_build = yes
				}
			}
			530 = {
				add_extra_state_shared_building_slots = 2
				add_building_construction = {
					type = arms_factory
					level = 2
					instant_build = yes
				}
			}
		}
	}

	focus = {
		id = JAP_coal_liquification
		icon = GFX_goal_generic_oil_refinery
		prerequisite = { focus = JAP_nationalize_war_industry }
		x = 0
		y = 3
		relative_position_id = JAP_nationalize_war_industry

		cost = 10

		ai_will_do = {
			factor = 2
		}

		cancel_if_invalid = yes
		continue_if_invalid = no
		available_if_capitulated = no


		search_filters = { FOCUS_FILTER_INDUSTRY }
		completion_reward = {
			random_owned_controlled_state = {
				limit = {
					is_core_of = ROOT
					synthetic_refinery < 3
					free_building_slots = { #less than 24 unlocked slots
						building = industrial_complex
						size > 0
						include_locked = yes
					}
				}
				prioritize = { 528 }
				add_extra_state_shared_building_slots = 1
				add_building_construction = {
					type = synthetic_refinery
					level = 1
					instant_build = yes
				}
			}
			add_tech_bonus = {
				name = JAP_coal_liquification
				bonus = 1.0
				uses = 1
				category = synth_resources	
			}
		}
	}

	focus = {
		id = JAP_national_mobilization_law
		icon = goal_JAP_national_mobalization2
		prerequisite = { focus = JAP_guide_the_zaibatsus }
		x = 2
		y = 1
		relative_position_id = JAP_guide_the_zaibatsus

		cost = 10

		ai_will_do = {
			factor = 2
		}

		available = {

		}

		bypass = {
			has_idea = tot_economic_mobilisation
		}

		cancel_if_invalid = yes
		continue_if_invalid = no
		available_if_capitulated = no


		search_filters = { FOCUS_FILTER_INDUSTRY FOCUS_FILTER_WAR_SUPPORT }
		completion_reward = {
			if = {
				limit = {
					has_idea = war_economy
				}
				add_political_power = 150
			}
			else = {
				add_ideas = war_economy
			}
			every_owned_state = {
				limit = {
					OR = {
						state = 528
						state = 529
						state = 530
						state = 531
						state = 532
						state = 533
						state = 534
						state = 535
						state = 536
						state = 282
					}
				}
				add_extra_state_shared_building_slots = 10
			}
		}
	}

	focus = {
		id = JAP_national_research_policy
		icon = GFX_focus_research
		prerequisite = { focus = JAP_national_mobilization_law }
		x = 0
		y = 1
		relative_position_id = JAP_national_mobilization_law

		cost = 10

		ai_will_do = {
			factor = 4
		}

		available = {

		}

		bypass = {

		}

		cancel_if_invalid = yes
		continue_if_invalid = no
		available_if_capitulated = no

		search_filters = { FOCUS_FILTER_RESEARCH }
		completion_reward = {
			add_research_slot = 2
		}
	}

	focus = {
		id = JAP_imperial_arsenals
		icon = goal_JAP_expand_the_nakajima_aircraft_company2
		prerequisite = { focus = JAP_national_mobilization_law }
		x = 2
		y = 1
		relative_position_id = JAP_national_mobilization_law

		cost = 10

		ai_will_do = {
			factor = 3
		}

		available = {

		}

		bypass = {

		}

		cancel_if_invalid = yes
		continue_if_invalid = no
		available_if_capitulated = no

		search_filters = { FOCUS_FILTER_INDUSTRY }

		completion_reward = {
			534 = {
				add_extra_state_shared_building_slots = 3
				add_building_construction = {
					type = industrial_complex
					level = 3
					instant_build = yes
				}
			}
			535 = {
				add_extra_state_shared_building_slots = 3
				add_building_construction = {
					type = industrial_complex
					level = 3
					instant_build = yes
				}
			}
		}
	}

	focus = {
		id = JAP_national_defense_state
		icon = goal_JAP_national_defence_state2
		prerequisite = { focus = JAP_nationalize_war_industry focus = JAP_imperial_arsenals }
		x = -2
		y = 1
		relative_position_id = JAP_imperial_arsenals

		cost = 10

		ai_will_do = {
			factor = 1
		}

		available = {

		}

		bypass = {

		}

		cancel_if_invalid = yes
		continue_if_invalid = no
		available_if_capitulated = no

		search_filters = { FOCUS_FILTER_WAR_SUPPORT }
		completion_reward = {
			if = {
				limit = {
					has_war_support < 0.8
				}
				add_war_support = 0.1
			}
			else_if = {
				limit = {
					has_idea = tot_economic_mobilisation
				}
				add_political_power = 150
			}
			else = {
				add_ideas = tot_economic_mobilisation
			}
		}
	}

	focus = {
		id = JAP_spiritual_mobilization
		icon = goal_JAP_supremacy_of_will2
		prerequisite = { focus = JAP_national_defense_state }
		x = -1
		y = 1
		relative_position_id = JAP_national_defense_state

		cost = 10

		ai_will_do = {
			factor = 4
		}

		available = {

		}

		bypass = {

		}

		cancel_if_invalid = yes
		continue_if_invalid = no
		available_if_capitulated = no

		search_filters = { FOCUS_FILTER_MANPOWER }
		completion_reward = {
			add_ideas = spiritual_mobilization_idea
			custom_effect_tooltip = peace_conference_spiritual_mob_modifier_japan
		}
	}

	focus = {
		id = JAP_warrior_spirit
		icon = JAP_samurai2
		prerequisite = { focus = JAP_national_defense_state }
		x = 1
		y = 1
		relative_position_id = JAP_national_defense_state

		cost = 10

		ai_will_do = {
			factor = 1
			modifier = {
				factor = 0
				has_war = no
			}
			modifier = {
				factor = 10
				surrender_progress > 0.9
			}
		}

		available = {

		}

		bypass = {

		}

		cancel_if_invalid = yes
		continue_if_invalid = no
		available_if_capitulated = no

		completion_reward = {
			hidden_effect = {
				set_rule = {
					can_use_kamikaze_pilots = yes
				}
			}
			custom_effect_tooltip = kamikaze_focus_tooltip
			if = { 
				limit = {
					has_dlc = "Waking the Tiger"
				}
				custom_effect_tooltip = cost_reduced_last_stand 
			}
		}
	}

	focus = {
		id = JAP_strengthen_the_divine_wind
		icon = goal_JAP_the_divine_wind2
		prerequisite = { focus = JAP_spiritual_mobilization }
		prerequisite = { focus = JAP_warrior_spirit }
		x = 1
		y = 1
		relative_position_id = JAP_spiritual_mobilization

		cost = 10

		ai_will_do = {
			factor = 3
		}

		available = {
			has_tech = rocket_engines
		}

		bypass = {

		}

		cancel_if_invalid = yes
		continue_if_invalid = no
		available_if_capitulated = no

		completion_reward = {
			if = {
				limit = {
					NOT = { has_dlc = "By Blood Alone" }
				}
				custom_effect_tooltip = JAP_strengthen_the_divine_wind_effect
				hidden_effect = { set_technology = { suicide_craft = 1 } }
			}
			else = {
				custom_effect_tooltip = JAP_strengthen_the_divine_wind_effect_bba
				hidden_effect = { set_technology = { suicide_charge = 1 popup = no} }
			}
		}
	}

	focus = {
		id = JAP_army_expansion_law
		icon = focus_JAP_army_expansion2

		x = 10
		y = 0

		cost = 5

		ai_will_do = {
			factor = 1
			modifier = {
				factor = 2
				has_completed_focus = JAP_support_the_kodoha_faction
			}
		}

		available = {

		}

		bypass = {

		}

		cancel_if_invalid = yes
		continue_if_invalid = no
		available_if_capitulated = no


		completion_reward = {
			army_experience = 30
		}
	}

	focus = {
		id = JAP_small_arms_modernization
		icon = r56_goal_JAP_samurai2
		prerequisite = { focus = JAP_army_expansion_law }
		x = -1
		y = 1
		relative_position_id = JAP_army_expansion_law

		cost = 10

		ai_will_do = {
			factor = 2
			modifier = {
				factor = 2
				has_completed_focus = JAP_support_the_kodoha_faction
			}
		}

		available = {

		}

		bypass = {

		}

		cancel_if_invalid = yes
		continue_if_invalid = no
		available_if_capitulated = no

		search_filters = { FOCUS_FILTER_RESEARCH }
		completion_reward = {
			add_tech_bonus = {
				name = JAP_small_arms_modernization
				bonus = 1.0
				uses = 1
				category = infantry_weapons	
			}
		}
	}

	focus = {
		id = JAP_supremacy_of_technology
		icon = japanese_instructors2
		prerequisite = { focus = JAP_small_arms_modernization }
		x = 0
		y = 1
		relative_position_id = JAP_small_arms_modernization

		cost = 5

		ai_will_do = {
			factor = 1
			modifier = {
				factor = 2
				has_completed_focus = JAP_strengthen_civilian_government
			}
		}

		available = {

		}

		bypass = {

		}

		cancel_if_invalid = yes
		continue_if_invalid = no
		available_if_capitulated = no

		search_filters = { FOCUS_FILTER_RESEARCH }
		completion_reward = {
			add_ideas = JAP_supremacy_of_technology
		}
	}

	focus = {
		id = JAP_modern_artillery
		icon = goal_JAP_osaka_arsenal2
		prerequisite = { focus =JAP_supremacy_of_technology  }
		x = 1
		y = 1
		relative_position_id = JAP_supremacy_of_technology

		cost = 10

		ai_will_do = {
			factor = 1
		}

		available = {

		}

		bypass = {

		}

		cancel_if_invalid = yes
		continue_if_invalid = no
		available_if_capitulated = no

		search_filters = { FOCUS_FILTER_RESEARCH }
		completion_reward = {
			add_tech_bonus = {
				name = JAP_modern_artillery
				bonus = 1.0
				uses = 2
				category = artillery	
			}
		}
	}

	focus = {
		id = JAP_armored_divisions
		icon = goal_JAP_persue_new_endevours2
		prerequisite = { focus = JAP_supremacy_of_technology }
		x = -1
		y = 1
		relative_position_id = JAP_supremacy_of_technology

		cost = 5

		ai_will_do = {
			factor = 1
		}

		available = {

		}

		bypass = {

		}

		cancel_if_invalid = yes
		continue_if_invalid = no
		available_if_capitulated = no

		search_filters = { FOCUS_FILTER_RESEARCH }
		completion_reward = {
			add_tech_bonus = {
				name = JAP_armored_divisions
				bonus = 1.0
				uses = 1
				category = armor	
			}
		}
	}

	focus = {
		id = JAP_mech
		text = "Type 1 Ho-Ki"
		icon = focus_JAP_armor2
		prerequisite = { focus = JAP_armored_divisions }
		x = 0
		y = 1
		relative_position_id = JAP_armored_divisions

		cost = 5

		ai_will_do = {
			factor = 1
		}

		available = {

		}

		bypass = {

		}

		cancel_if_invalid = yes
		continue_if_invalid = no
		available_if_capitulated = no

		search_filters = { FOCUS_FILTER_RESEARCH }
		completion_reward = {
			add_tech_bonus = {
				name = JAP_armored_divisions
				bonus = 2.5
				uses = 1
				technology = mechanised_infantry
			}
		}
	}

	focus = {
		id = JAP_amph
		text = "Tank-Battleships"
		icon = goal_JAP_ign_airforce2
		prerequisite = { focus = JAP_armored_divisions }
		mutually_exclusive = { focus = JAP_superheavy }
		x = 1
		y = 2
		relative_position_id = JAP_armored_divisions

		cost = 5

		ai_will_do = {
			factor = 1
		}

		available = {
			OR = {
				has_idea = JAP_interservice_rivalry_navy_dominant
				has_idea = JAP_interservice_rivalry_navy_strengthened
			}
		}

		bypass = {

		}

		cancel_if_invalid = yes
		continue_if_invalid = no
		available_if_capitulated = no

		search_filters = { FOCUS_FILTER_RESEARCH }
		completion_reward = {
			add_tech_bonus = {
				name = JAP_armored_divisions
				bonus = 1.0
				uses = 2
				technology = amphibious_tank_chassis
				technology = amphibious_drive
			}
		}
	}

	focus = {
		id = JAP_superheavy
		text = "Battleship-Tanks"
		icon = goal_JAP_purge_the_kwantung_army2
		prerequisite = { focus = JAP_armored_divisions }
		mutually_exclusive = { focus = JAP_amph }
		x = -1
		y = 2
		relative_position_id = JAP_armored_divisions

		cost = 5

		ai_will_do = {
			factor = 1
		}

		available = {
			OR = {
				has_idea = JAP_interservice_rivalry_army_dominant
				has_idea = JAP_interservice_rivalry_army_strengthened
			}
		}

		bypass = {

		}

		cancel_if_invalid = yes
		continue_if_invalid = no
		available_if_capitulated = no

		search_filters = { FOCUS_FILTER_RESEARCH }
		completion_reward = {
			add_tech_bonus = {
				name = JAP_armored_divisions
				bonus = 1.87
				uses = 1
				technology = super_heavy_tank_chassis
			}
		}
	}


	focus = {
		id = JAP_bicycle_battalions
		icon = goal_JAP_bicycle_battalions2
		prerequisite = { focus = JAP_supremacy_of_will }
		x = 1
		y = 1
		relative_position_id = JAP_supremacy_of_will

		cost = 5

		ai_will_do = {
			factor = 1
		}

		available = {

		}

		bypass = {

		}

		cancel_if_invalid = yes
		continue_if_invalid = no
		available_if_capitulated = no

		search_filters = { FOCUS_FILTER_RESEARCH }
		completion_reward = {
			set_technology = { bicycle_infantry = 1 }
		}
	}

	focus = {
		id = JAP_shovel
		text = "Imperial Shovelers"
		icon = japanese_officer2
		prerequisite = { focus = JAP_bicycle_battalions }
		x = 0
		y = 2
		relative_position_id = JAP_bicycle_battalions

		cost = 5

		ai_will_do = {
			factor = 1
		}

		available = {

		}

		bypass = {

		}

		cancel_if_invalid = yes
		continue_if_invalid = no
		available_if_capitulated = no

		search_filters = { FOCUS_FILTER_RESEARCH }
		completion_reward = {
			add_tech_bonus = {
				name = "Shoveling"
				bonus = 0.75
				uses = 1
				technology = tech_engineers
				technology = tech_engineers2
				technology = tech_engineers3
				technology = tech_engineers4
			}
		}
	}

	focus = {
		id = JAP_logistics
		text = "Drive-By Supply"
		icon = USA_well_supplied_and_motivated2
		prerequisite = { focus = JAP_bicycle_battalions }
		x = 1
		y = 1
		relative_position_id = JAP_bicycle_battalions

		cost = 5

		ai_will_do = {
			factor = 1
		}

		available = {

		}

		bypass = {

		}

		cancel_if_invalid = yes
		continue_if_invalid = no
		available_if_capitulated = no

		search_filters = { FOCUS_FILTER_RESEARCH }
		completion_reward = {
			add_tech_bonus = {
				name = "Driveby Recon"
				bonus = 0.75
				uses = 1
				technology = tech_logistics_company
				technology = tech_logistics_company2
				technology = tech_logistics_company3
				technology = tech_logistics_company4
			}
		}
	}

	focus = {
		id = JAP_recon
		text = "Drive-By Reconaissance"
		icon = goal_USA_air_ground_direct_line2
		prerequisite = { focus = JAP_bicycle_battalions }
		x = -1
		y = 1
		relative_position_id = JAP_bicycle_battalions

		cost = 5

		ai_will_do = {
			factor = 1
		}

		available = {

		}

		bypass = {

		}

		cancel_if_invalid = yes
		continue_if_invalid = no
		available_if_capitulated = no

		search_filters = { FOCUS_FILTER_RESEARCH }
		completion_reward = {
			add_tech_bonus = {
				name = "Driveby Recon"
				bonus = 0.75
				uses = 1
				technology = tech_recon
				technology = tech_recon2
				technology = tech_recon3
				technology = tech_recon4
			}
		}
	}

	focus = {
		id = JAP_army_expansion
		icon = focus_JAP_small_arms2
		prerequisite = { focus = JAP_army_expansion_law }
		x = 1
		y = 1
		relative_position_id = JAP_army_expansion_law

		cost = 5

		ai_will_do = {
			factor = 1
			modifier = {
				factor = 2
				has_completed_focus = JAP_support_the_kodoha_faction
			}
		}

		available = {

		}

		bypass = {

		}

		cancel_if_invalid = yes
		continue_if_invalid = no
		available_if_capitulated = no


		completion_reward = {
			custom_effect_tooltip = available_chief_of_army
			show_ideas_tooltip = hajime_sugiyama
		}
	}

	focus = {
		id = JAP_supremacy_of_will
		icon = goal_JAP_ultimate_victory2
		prerequisite = { focus = JAP_army_expansion }
		x = 0
		y = 1
		relative_position_id = JAP_army_expansion

		cost = 10

		ai_will_do = {
			factor = 1
			modifier = {
				factor = 2
				has_completed_focus = JAP_support_the_kodoha_faction
			}
		}

		available = {

		}

		bypass = {

		}

		cancel_if_invalid = yes
		continue_if_invalid = no
		available_if_capitulated = no


		completion_reward = {
			add_ideas = JAP_superior_will
		}
	}

	focus = {
		id = JAP_fighter_modernization
		icon = goal_JAP_the_imperial_japanese_air_force2
		prerequisite = { focus = JAP_army_expansion_law focus = JAP_new_naval_estimates }
		x = 7
		y = 2
		relative_position_id = JAP_army_expansion_law

		cost = 10

		ai_will_do = {
			factor = 1
			modifier = {
				factor = 2
				has_completed_focus = JAP_support_the_kodoha_faction
				has_completed_focus = JAP_purge_the_kodoha_faction
			}
		}

		available = {

		}

		bypass = {

		}

		cancel_if_invalid = yes
		continue_if_invalid = no
		available_if_capitulated = no

		search_filters = { FOCUS_FILTER_RESEARCH }
		completion_reward = {
			add_tech_bonus = {
				name = JAP_fighter_modernization
				bonus = 1.0
				uses = 1
				category = light_fighter		
			}
			add_tech_bonus = {
				name = JAP_fighter_modernization
				bonus = 1.0
				uses = 1
				category = cat_heavy_fighter	
			}
		}
	}

	focus = {
		id = JAP_range_focus
		icon = GFX_goal_generic_air_production
		prerequisite = { focus = JAP_fighter_modernization }
		x = -1
		y = 1
		relative_position_id = JAP_fighter_modernization

		cost = 10

		ai_will_do = {
			factor = 1
		}

		available = {

		}

		bypass = {

		}

		cancel_if_invalid = yes
		continue_if_invalid = no
		available_if_capitulated = no


		completion_reward = {
			IF = {
				limit = {
					has_dlc = "Arms Against Tyranny"
				}	
				custom_effect_tooltip = available_mio_tt
				show_mio_tooltip = JAP_aichi_organization
				mio:JAP_aichi_organization = {
					add_mio_funds = 2000
				}
			}
			ELSE = {
				custom_effect_tooltip = available_designer
				show_ideas_tooltip = aichi
			}
		}
	}

	focus = {
		id = JAP_agility_focus
		icon = GFX_goal_generic_air_production
		prerequisite = { focus = JAP_fighter_modernization }
		x = 1
		y = 1
		relative_position_id = JAP_fighter_modernization

		cost = 10

		ai_will_do = {
			factor = 1
			modifier = {
				factor = 2
				has_completed_focus = JAP_purge_the_kodoha_faction
			}
		}

		available = {

		}

		bypass = {

		}

		cancel_if_invalid = yes
		continue_if_invalid = no
		available_if_capitulated = no


		completion_reward = {
			IF = {
				limit = {
					has_dlc = "Arms Against Tyranny"
				}	
				custom_effect_tooltip = available_mio_tt
				show_mio_tooltip = JAP_mitsubishi_organization
				mio:JAP_mitsubishi_organization = {
					add_mio_funds = 2000
				}
			}
			ELSE = {
				custom_effect_tooltip = available_designer
				show_ideas_tooltip = mitsubishi
			}
		}
	}

	focus = {
		id = JAP_focus_naval_bomber
		text = "Naval Bomber"
		icon = GFX_goal_generic_navy_carrier
		prerequisite = { focus = JAP_range_focus focus = JAP_agility_focus}
		x = 0
		y = 2
		relative_position_id = JAP_fighter_modernization

		cost = 5

		ai_will_do = {
			factor = 1
		}

		available = {

		}

		bypass = {

		}

		cancel_if_invalid = yes
		continue_if_invalid = no
		available_if_capitulated = no

		search_filters = { FOCUS_FILTER_RESEARCH }
		completion_reward = {
			add_tech_bonus = {
				name = JAP_bomber_modernization
				bonus = 1.0
				uses = 2
				category = naval_bomber					
			}
		}
	}

	focus = {
		id = JAP_the_zero
		icon = GFX_focus_jap_zero
		prerequisite = { focus = JAP_first_air_fleet }
		prerequisite = { focus = JAP_agility_focus }
		x = 1
		y = 1
		relative_position_id = JAP_agility_focus

		cost = 25 # cause navy is cheaper # 14

		ai_will_do = {
			factor = 1
			modifier = {
				factor = 2
				has_completed_focus = JAP_purge_the_kodoha_faction
			}
		}

		available = {

		}

		cancel_if_invalid = yes
		continue_if_invalid = no
		available_if_capitulated = no

		search_filters = { FOCUS_FILTER_RESEARCH }
		completion_reward = {
			custom_effect_tooltip = "This Focus is more expensive cause navy is cheaper, deal with it"
			custom_effect_tooltip = JAP_the_zero_tt
			hidden_effect = { 
				if = {
					limit = {
						NOT = {
							has_dlc = "By Blood Alone"
						}
					}
					set_technology = { cv_fighter2 = 1 } 
				}
				else = {
					create_equipment_variant = {
						name = "A6M Zero-Sen"
						type = cv_small_plane_airframe_2
						allow_without_tech = yes #Makes no difference since focus grants appropriate tech (above), but it improves tooltip
						modules = {
							fixed_main_weapon_slot = light_mg_2x
							fixed_auxiliary_weapon_slot_1 = aircraft_cannon_1_2x
							engine_type_slot = engine_3_1x
							special_type_slot_1 = drop_tanks
							special_type_slot_2 = fuel_tanks_small
						}
						icon = "GFX_JAP_cv_fighter2_medium"
					}
				}
			}
		}
	}

	focus = {
		id = JAP_bomber_modernization
		icon = r56_goal_JAP_bomber2
		prerequisite = { focus = JAP_range_focus }
		x = -2
		y = 2
		relative_position_id = JAP_fighter_modernization

		cost = 10

		ai_will_do = {
			factor = 1
		}

		available = {

		}

		bypass = {

		}

		cancel_if_invalid = yes
		continue_if_invalid = no
		available_if_capitulated = no

		search_filters = { FOCUS_FILTER_RESEARCH }
		completion_reward = {
			add_tech_bonus = {
				name = JAP_bomber_modernization
				bonus = 1.0
				uses = 1
				category = cas_bomber
				category = tactical_bomber					
			}
		}
	}

	focus = {
		id = JAP_strategic_bomber_effort
		icon = GFX_goal_generic_air_bomber
		prerequisite = { focus = JAP_bomber_modernization }
		x = -1
		y = 3
		relative_position_id = JAP_fighter_modernization

		cost = 10

		ai_will_do = {
			factor = 1
		}

		available = {

		}

		bypass = {

		}

		cancel_if_invalid = yes
		continue_if_invalid = no
		available_if_capitulated = no

		search_filters = { FOCUS_FILTER_RESEARCH }
		completion_reward = {
			add_tech_bonus = {
				name = JAP_strategic_bomber_effort
				bonus = 1.0
				uses = 2
				category = cat_strategic_bomber	
			}
		}
	}

	focus = {
		id = JAP_unified_fighter_development
		icon = japanese_investment2
		prerequisite = { focus = JAP_the_zero }
		x = 1
		y = 3
		relative_position_id = JAP_fighter_modernization

		cost = 10

		ai_will_do = {
			factor = 2
		}

		available = {

		}

		bypass = {

		}

		cancel_if_invalid = yes
		continue_if_invalid = no
		available_if_capitulated = no

		search_filters = { FOCUS_FILTER_RESEARCH }
		completion_reward = {
			remove_ideas = JAP_duplicate_research_efforts
			add_timed_idea = { idea = JAP_timed_schlot days = 365 }
		}
	}

	focus = {
		id = JAP_jet_prototypes
		icon = GFX_goal_generic_build_airforce
		prerequisite = { focus = JAP_unified_fighter_development focus = JAP_strategic_bomber_effort focus = JAP_focus_naval_bomber }
		x = 0
		y = 4
		relative_position_id = JAP_fighter_modernization

		cost = 10

		ai_will_do = {
			factor = 1
		}

		available = {

		}

		bypass = {

		}

		cancel_if_invalid = yes
		continue_if_invalid = no
		available_if_capitulated = no

		search_filters = { FOCUS_FILTER_RESEARCH }
		completion_reward = {
			add_tech_bonus = {
				name = JAP_jet_prototypes
				bonus = 1.0
				uses = 2
				category = jet_technology
			}
		}
	}

	focus = {
		id = JAP_new_naval_estimates
		icon = r56_goal_JAP_new_naval_estimates2
		x = 11	
		y = 0
		relative_position_id = JAP_army_expansion_law

		cost = 5

		ai_will_do = {
			factor = 1
			modifier = {
				factor = 2
				has_completed_focus = JAP_purge_the_kodoha_faction
			}
		}

		available = {

		}

		bypass = {

		}

		cancel_if_invalid = yes
		continue_if_invalid = no
		available_if_capitulated = no

		search_filters = { FOCUS_FILTER_INDUSTRY }

		completion_reward = {
			navy_experience = 50
			537 = {
				add_extra_state_shared_building_slots = 10
				add_building_construction = {
					type = dockyard
					level = 10
					instant_build = yes
				}
			}
			536 = {
				add_extra_state_shared_building_slots = 10
				add_building_construction = {
					type = dockyard
					level = 10
					instant_build = yes
				}
			}
		}
	}

	focus = {
		id = JAP_carrier_warfare_experiments
		icon = GFX_goal_generic_navy_doctrines_tactics
		prerequisite = { focus = JAP_new_naval_estimates }
		x = -1
		y = 1
		relative_position_id = JAP_new_naval_estimates

		cost = 5

		ai_will_do = {
			factor = 1
			modifier = {
				factor = 2
				has_completed_focus = JAP_purge_the_kodoha_faction
			}
		}

		available = {

		}

		bypass = {

		}

		cancel_if_invalid = yes
		continue_if_invalid = no
		available_if_capitulated = no

		search_filters = { FOCUS_FILTER_RESEARCH }
		completion_reward = {
			add_tech_bonus = {
				name = JAP_supremacy_of_the_battlefleet
				bonus = 1.0
				uses = 1
				category = cv_tech
			}
			add_doctrine_cost_reduction = {
				name = JAP_carrier_warfare_experiments
				cost_reduction = 0.25
				uses = 2
				category = cat_base_strike
			}
			536 = {
				add_extra_state_shared_building_slots = 10
				add_building_construction = {
					type = dockyard
					level = 10
					instant_build = yes
				}
			}
		}
	}

	focus = {
		id = JAP_expand_the_snlf
		icon = goal_JAP_ign2
		prerequisite = { focus = JAP_carrier_warfare_experiments focus = JAP_supremacy_of_the_battlefleet }
		x = 0
		y = 2
		relative_position_id = JAP_new_naval_estimates

		cost = 5

		ai_will_do = {
			factor = 1
			modifier = {
				factor = 2
				has_completed_focus = JAP_purge_the_kodoha_faction
			}
		}

		available = {

		}

		bypass = {

		}

		cancel_if_invalid = yes
		continue_if_invalid = no
		available_if_capitulated = no

		search_filters = { FOCUS_FILTER_RESEARCH }
		completion_reward = {
			add_ideas = JAP_expand_the_snlf
			if = {
				limit = {
					has_dlc = "Arms Against Tyranny"
				}
				add_potential_special_forces_tree = yes
				add_doctrine_cost_reduction = {
					name = JAP_expand_the_snlf
					cost_reduction = 0.25
					uses = 2
					category = special_forces_doctrine
				}
			}
			else = {
				add_tech_bonus = {
					name = JAP_expand_the_snlf
					bonus = 1.0
					uses = 1
					category = marine_tech	
				}
			}
			536 = {
				add_extra_state_shared_building_slots = 2
				add_building_construction = {
					type = dockyard
					level = 2
					instant_build = yes
				}
			}
		}
	}

	focus = {
		id = JAP_first_air_fleet
		icon = JAP_Navy_Air2
		prerequisite = { focus = JAP_carrier_warfare_experiments }
		x = 0
		y = 2
		relative_position_id = JAP_carrier_warfare_experiments

		cost = 5

		ai_will_do = {
			factor = 1
			modifier = {
				factor = 2
				has_completed_focus = JAP_purge_the_kodoha_faction
			}
		}

		available = {

		}

		bypass = {

		}

		cancel_if_invalid = yes
		continue_if_invalid = no
		available_if_capitulated = no


		completion_reward = {
			add_ideas = JAP_first_air_fleet
			add_tech_bonus = {
				name = JAP_supremacy_of_the_battlefleet
				bonus = 1.0
				uses = 1
				category = cv_tech
			}
			555 = {
				add_extra_state_shared_building_slots = 10
				add_building_construction = {
					type = dockyard
					level = 10
					instant_build = yes
				}
			}
		}
	}

	focus = {
		id = JAP_modern_escorts
		icon = GFX_goal_generic_navy_anti_submarine

		prerequisite = { focus = JAP_first_air_fleet focus = JAP_the_ultimate_battleship }
		x = 1
		y = 1
		relative_position_id = JAP_first_air_fleet

		cost = 5

		ai_will_do = {
			factor = 1
		}

		available = {

		}

		bypass = {

		}

		cancel_if_invalid = yes
		continue_if_invalid = no
		available_if_capitulated = no

		search_filters = { FOCUS_FILTER_RESEARCH }
		completion_reward = {
			add_tech_bonus = {
				name = JAP_modern_escorts
				bonus = 1.0
				uses = 2
				category = dd_tech	
			}
			536 = {
				add_extra_state_shared_building_slots = 2
				add_building_construction = {
					type = dockyard
					level = 2
					instant_build = yes
				}
			}
		}
	}

	focus = {
		id = JAP_supremacy_of_the_battlefleet
		icon = focus_JAP_battlefleet2
		prerequisite = { focus = JAP_new_naval_estimates }
		x = 1
		y = 1
		relative_position_id = JAP_new_naval_estimates

		cost = 5

		ai_will_do = {
			factor = 1
		}

		available = {

		}

		bypass = {

		}

		cancel_if_invalid = yes
		continue_if_invalid = no
		available_if_capitulated = no

		search_filters = { FOCUS_FILTER_RESEARCH }
		completion_reward = {
			add_tech_bonus = {
				name = JAP_supremacy_of_the_battlefleet
				bonus = 1.0
				uses = 1
				category = bb_tech
			}
			IF = {
				limit = {
					has_dlc = "Arms Against Tyranny"
				}	
				custom_effect_tooltip = available_mio_tt
				show_mio_tooltip = JAP_kure_naval_arsenal_organization
				mio:JAP_kure_naval_arsenal_organization = {
					add_mio_size = 2
				}
			}
			ELSE = {
				custom_effect_tooltip = available_designer
				show_ideas_tooltip = kure_naval_arsenal
			}
			537 = {
				add_extra_state_shared_building_slots = 10
				add_building_construction = {
					type = dockyard
					level = 10
					instant_build = yes
				}
			}
		}
	}

	focus = {
		id = JAP_the_ultimate_battleship
		icon = goal_JAP_the_ultimate_battleship2
		prerequisite = { focus = JAP_supremacy_of_the_battlefleet }
		x = 0
		y = 2
		relative_position_id = JAP_supremacy_of_the_battlefleet

		cost = 10

		ai_will_do = {
			factor = 1
		}

		available = {

		}

		bypass = { }

		cancel_if_invalid = yes
		continue_if_invalid = no
		available_if_capitulated = no

		search_filters = { FOCUS_FILTER_RESEARCH }
		completion_reward = {
			IF = {
				limit = {
					has_dlc = "Arms Against Tyranny"
				}	
				custom_effect_tooltip = available_mio_tt
				show_mio_tooltip = JAP_kure_naval_arsenal_organization
			}
			add_tech_bonus = {
				name = JAP_supremacy_of_the_battlefleet
				bonus = 1.0
				uses = 1
				category = bb_tech
			}
			if = {
				limit = {
					not = { has_dlc = "Man the Guns" }
				}
				add_tech_bonus = {
					name = JAP_the_ultimate_battleship
					bonus = 3.0
					uses = 1
					category = shbb_tech	
				}
			}
			else = {
				if = {
					limit = {
						not = { has_tech = ship_hull_super_heavy }
					}
					set_technology = {
						ship_hull_super_heavy = 1
					}
				}
				create_equipment_variant = {
					name = "Yamato Class"
					type = ship_hull_super_heavy_1
					name_group = JAP_BB_HISTORICAL
					parent_version = 0
					allow_without_tech = yes #Makes no difference since focus grants appropriate tech (above), but it improves tooltip
					modules = {
						fixed_ship_battery_slot = ship_super_heavy_battery_1
						fixed_ship_anti_air_slot = ship_anti_air_2
						fixed_ship_fire_control_system_slot = ship_fire_control_system_1
						fixed_ship_radar_slot = empty
						fixed_ship_engine_slot = heavy_ship_engine_2
						fixed_ship_secondaries_slot = ship_secondaries_2
						fixed_ship_armor_slot = ship_armor_shbb
						front_1_custom_slot = ship_anti_air_1
						front_2_custom_slot = empty
						mid_1_custom_slot = empty
						mid_2_custom_slot = ship_secondaries_2
						mid_3_custom_slot = ship_secondaries_2
						rear_1_custom_slot = ship_super_heavy_battery_1
						rear_2_custom_slot = ship_airplane_launcher_1
					}
				}
				custom_effect_tooltip = JAP_yamato_tt
				hidden_effect = {
					add_equipment_production = {
						equipment = {
							type = ship_hull_super_heavy_1
							creator = "JAP" 
							version_name = "Yamato Class"
						}
						name = "Yamato" 
						requested_factories = 1
						progress = 0.75
						amount = 1
					}
					add_equipment_production = {
						equipment = {
							type = ship_hull_super_heavy_1
							creator = "JAP" 
							version_name = "Yamato Class"
						}
						name = "Musashi" 
						requested_factories = 1
						progress = 0.5
						amount = 1
					}
				}
			}
		}
	}

	focus = {
		id = JAP_cruiser_modernization
		icon = r56_goal_JAP_tides2
		prerequisite = { focus = JAP_new_naval_estimates }
		x = 3
		y = 1
		relative_position_id = JAP_new_naval_estimates

		cost = 5

		ai_will_do = {
			factor = 1
		}

		available = {

		}

		bypass = {

		}

		cancel_if_invalid = yes
		continue_if_invalid = no
		available_if_capitulated = no

		search_filters = { FOCUS_FILTER_RESEARCH }
		completion_reward = {
			add_tech_bonus = {
				name = JAP_cruiser_modernization
				bonus = 3.0
				uses = 1
				category = cl_tech	
				category = ca_tech	
			}
			536 = {
				add_extra_state_shared_building_slots = 2
				add_building_construction = {
					type = dockyard
					level = 2
					instant_build = yes
				}
			}
		}
	}

	focus = {
		id = JAP_long_lance_torpedoes
		icon = GFX_goal_generic_occupy_start_war
		prerequisite = { focus = JAP_cruiser_modernization }
		x = 0
		y = 1
		relative_position_id = JAP_cruiser_modernization

		cost = 5

		ai_will_do = {
			factor = 4
		}

		available = {

		}

		bypass = {

		}

		cancel_if_invalid = yes
		continue_if_invalid = no
		available_if_capitulated = no


		completion_reward = {
			add_ideas = the_long_lance
			536 = {
				add_extra_state_shared_building_slots = 2
				add_building_construction = {
					type = dockyard
					level = 2
					instant_build = yes
				}
			}
		}
	}

 	focus = {
		id = JAP_torpedo_cruisers
		icon = focus_JAP_new_naval2
		prerequisite = { focus = JAP_long_lance_torpedoes }
		x = 0
		y = 1
		relative_position_id = JAP_long_lance_torpedoes

		cost = 5

		ai_will_do = {
			factor = 2
		}

		available = {

		}

		bypass = {

		}

		cancel_if_invalid = yes
		continue_if_invalid = no
		available_if_capitulated = no

		search_filters = { FOCUS_FILTER_RESEARCH }
		completion_reward = {
			if = {
				limit = {
					not = { has_dlc = "Man the Guns" }
				}
				set_technology = { torpedo_cruiser = 1 }
			}
			else = {
				set_technology = { torpedo_cruiser_mtg = 1 }
			}
			536 = {
				add_extra_state_shared_building_slots = 2
				add_building_construction = {
					type = dockyard
					level = 2
					instant_build = yes
				}
			}
		}
	}
}
