equipment_modules = {
	limit = {
		has_dlc = "By Blood Alone"
	}
	### Engines

	engine_1_1x = {
		abbreviation = "e11"
		category = plane_engine_type
		sfx = sfx_ui_sd_module_engine

		add_stats = {
			thrust = 11
			build_cost_ic = 48
			fuel_consumption = 0.16
		}
		
	}

	engine_1_2x = {
		abbreviation = "e12"
		category = twin_plane_engine_type
		sfx = sfx_ui_sd_module_engine

		add_stats = {
			thrust = 19
			build_cost_ic = 96
			fuel_consumption = 0.32
		}
	}

	engine_1_3x = {
		abbreviation = "e13"
		category = medium_plane_engine_type
		sfx = sfx_ui_sd_module_engine

		add_stats = {
			thrust = 23
			build_cost_ic = 144
			fuel_consumption = 0.48
		}
	}

	engine_1_4x = {
		abbreviation = "e14"
		category = quad_large_plane_engine_type
		sfx = sfx_ui_sd_module_engine

		add_stats = {
			thrust = 32
			build_cost_ic = 192
			fuel_consumption = 0.64
		}
	}

	engine_1_6x = {
		abbreviation = "e16"
		category = large_plane_engine_type
		sfx = sfx_ui_sd_module_engine

		add_stats = {
			thrust = 41
			build_cost_ic = 272
			fuel_consumption = 0.8
		}
	}

	engine_2_1x = {
		abbreviation = "e21"
		category = plane_engine_type
		sfx = sfx_ui_sd_module_engine
		parent = engine_1_1x

		add_stats = {
			thrust = 16
			build_cost_ic = 56
			fuel_consumption = 0.16
		}

		multiply_stats = {
			maximum_speed = 0.20
		}

		can_convert_from = {
			module = engine_1_1x
			convert_cost_ic = 6
		}
	}

	engine_2_2x = {
		abbreviation = "e22"
		category = twin_plane_engine_type
		sfx = sfx_ui_sd_module_engine
		parent = engine_1_2x

		add_stats = {
			thrust = 25
			build_cost_ic = 112
			fuel_consumption = 0.32
		}

		multiply_stats = {
			maximum_speed = 0.20
		}

		can_convert_from = {
			module = engine_1_2x
			convert_cost_ic = 12
		}
	}

	engine_2_3x = {
		abbreviation = "e23"
		category = medium_plane_engine_type
		sfx = sfx_ui_sd_module_engine
		parent = engine_1_3x

		add_stats = {
			thrust = 32
			build_cost_ic = 168
			fuel_consumption = 0.48
		}

		multiply_stats = {
			maximum_speed = 0.20
		}

		can_convert_from = {
			module = engine_1_3x
			convert_cost_ic = 18
		}
	}

	engine_2_4x = {
		abbreviation = "e24"
		category = quad_large_plane_engine_type
		sfx = sfx_ui_sd_module_engine
		parent = engine_1_4x

		add_stats = {
			thrust = 40
			build_cost_ic = 224
			fuel_consumption = 0.64
		}

		multiply_stats = {
			maximum_speed = 0.20
		}

		can_convert_from = {
			module = engine_1_4x
			convert_cost_ic = 24
		}
	}

	engine_2_6x = {
		abbreviation = "e26"
		category = large_plane_engine_type
		sfx = sfx_ui_sd_module_engine
		parent = engine_1_6x

		add_stats = {
			thrust = 56
			build_cost_ic = 320
			fuel_consumption = 0.8
		}

		multiply_stats = {
			maximum_speed = 0.20
		}

		can_convert_from = {
			module = engine_1_6x
			convert_cost_ic = 36
		}
	}

	engine_3_1x = {
		abbreviation = "e31"
		category = plane_engine_type
		sfx = sfx_ui_sd_module_engine
		parent = engine_2_1x

		add_stats = {
			thrust = 25
			build_cost_ic = 64
			fuel_consumption = 0.16
		}

		multiply_stats = {
			maximum_speed = 0.30
		}

		can_convert_from = {
			module = engine_2_1x
			convert_cost_ic = 10
		}
	}

	engine_3_2x = {
		abbreviation = "e32"
		category = twin_plane_engine_type
		sfx = sfx_ui_sd_module_engine
		parent = engine_2_2x

		add_stats = {
			thrust = 38
			build_cost_ic = 128
			fuel_consumption = 0.32
		}

		multiply_stats = {
			maximum_speed = 0.30
		}

		can_convert_from = {
			module = engine_2_2x
			convert_cost_ic = 20
		}
	}

	engine_3_3x = {
		abbreviation = "e33"
		category = medium_plane_engine_type
		sfx = sfx_ui_sd_module_engine
		parent = engine_2_3x

		add_stats = {
			thrust = 51
			build_cost_ic = 192
			fuel_consumption = 0.48
		}

		multiply_stats = {
			maximum_speed = 0.30
		}

		can_convert_from = {
			module = engine_2_3x
			convert_cost_ic = 30
		}
	}

	engine_3_4x = {
		abbreviation = "e34"
		category = quad_large_plane_engine_type
		sfx = sfx_ui_sd_module_engine
		parent = engine_2_4x

		add_stats = {
			thrust = 64
			build_cost_ic = 256
			fuel_consumption = 0.64
		}

		multiply_stats = {
			maximum_speed = 0.30
		}

		can_convert_from = {
			module = engine_2_4x
			convert_cost_ic = 40
		}
	}

	engine_3_6x = {
		abbreviation = "e36"
		category = large_plane_engine_type
		sfx = sfx_ui_sd_module_engine
		parent = engine_2_6x

		add_stats = {
			thrust = 90
			build_cost_ic = 368
			fuel_consumption = 0.8
		}

		multiply_stats = {
			maximum_speed = 0.30
		}

		can_convert_from = {
			module = engine_2_4x
			convert_cost_ic = 60
		}
	}

	engine_4_1x = {
		abbreviation = "e41"
		category = plane_engine_type
		sfx = sfx_ui_sd_module_engine
		parent = engine_3_1x

		add_stats = {
			thrust = 30
			build_cost_ic = 72
			fuel_consumption = 0.16
		}

		multiply_stats = {
			maximum_speed = 0.45
		}

		can_convert_from = {
			module = engine_3_1x
			convert_cost_ic = 12
		}
	}

	engine_4_2x = {
		abbreviation = "e42"
		category = twin_plane_engine_type
		sfx = sfx_ui_sd_module_engine
		parent = engine_3_2x

		add_stats = {
			thrust = 45
			build_cost_ic = 144
			fuel_consumption = 0.32
		}

		multiply_stats = {
			maximum_speed = 0.45
		}

		can_convert_from = {
			module = engine_3_2x
			convert_cost_ic = 24
		}
	}

	engine_4_3x = {
		abbreviation = "e43"
		category = medium_plane_engine_type
		sfx = sfx_ui_sd_module_engine
		parent = engine_3_3x

		add_stats = {
			thrust = 60
			build_cost_ic = 216
			fuel_consumption = 0.48
		}

		multiply_stats = {
			maximum_speed = 0.45
		}

		can_convert_from = {
			module = engine_3_3x
			convert_cost_ic = 36
		}
	}

	engine_4_4x = {
		abbreviation = "e44"
		category = quad_large_plane_engine_type
		sfx = sfx_ui_sd_module_engine
		parent = engine_3_4x

		add_stats = {
			thrust = 75
			build_cost_ic = 288
			fuel_consumption = 0.64
		}

		multiply_stats = {
			maximum_speed = 0.45
		}

		can_convert_from = {
			module = engine_3_4x
			convert_cost_ic = 48
		}
	}

	engine_4_6x = {
		abbreviation = "e46"
		category = large_plane_engine_type
		sfx = sfx_ui_sd_module_engine
		parent = engine_3_6x

		add_stats = {
			thrust = 105
			build_cost_ic = 432
			fuel_consumption = 0.8
		}

		multiply_stats = {
			maximum_speed = 0.45
		}

		can_convert_from = {
			module = engine_3_6x
			convert_cost_ic = 72
		}
	}

	jet_engine_1x = {
		abbreviation = "j1"
		category = plane_jet_engine_type
		sfx = sfx_ui_sd_module_engine
		parent = engine_4_1x

		add_stats = {
			thrust = 25
			build_cost_ic = 76
			fuel_consumption = 0.3
		}

		multiply_stats = {
			air_range = -0.4
			maximum_speed = 0.65
		}

		build_cost_resources = {
			tungsten = 1
		}

		can_convert_from = {
			module_category = plane_engine_type
			convert_cost_ic = 20
		}
	}

	jet_engine_2x = {
		abbreviation = "j2"
		category = twin_plane_jet_engine_type
		sfx = sfx_ui_sd_module_engine
		parent = engine_4_2x

		add_stats = {
			thrust = 38
			build_cost_ic = 152
			fuel_consumption = 0.6
		}

		multiply_stats = {
			air_range = -0.4
			maximum_speed = 0.65
		}

		build_cost_resources = {
			tungsten = 1
		}

		can_convert_from = {
			module_category = plane_engine_type
			convert_cost_ic = 40
		}
	}

	jet_engine_3x = {
		abbreviation = "j3"
		category = medium_plane_jet_engine_type
		sfx = sfx_ui_sd_module_engine
		parent = engine_4_3x

		add_stats = {
			thrust = 51
			build_cost_ic = 228
			fuel_consumption = 0.9
		}

		multiply_stats = {
			air_range = -0.4
			maximum_speed = 0.65
		}

		build_cost_resources = {
			tungsten = 2
		}

		can_convert_from = {
			module_category = medium_plane_engine_type
			convert_cost_ic = 60
		}
	}

	jet_engine_4x = {
		abbreviation = "j4"
		category = quad_large_plane_jet_engine_type
		sfx = sfx_ui_sd_module_engine
		parent = engine_4_4x

		add_stats = {
			thrust = 64
			build_cost_ic = 304
			fuel_consumption = 1.2
		}

		multiply_stats = {
			air_range = -0.4
			maximum_speed = 0.65
		}

		build_cost_resources = {
			tungsten = 2
		}
		can_convert_from = {
			module_category = medium_plane_engine_type
			convert_cost_ic = 80
		}
	}

	jet_engine_6x = {
		abbreviation = "j6"
		category = large_plane_jet_engine_type
		sfx = sfx_ui_sd_module_engine
		parent = engine_4_6x

		add_stats = {
			thrust = 90
			build_cost_ic = 456
			fuel_consumption = 1.8
		}

		multiply_stats = {
			air_range = -0.4
			maximum_speed = 0.65
		}

		build_cost_resources = {
			tungsten = 3
		}
		can_convert_from = {
			module_category = large_plane_engine_type
			convert_cost_ic = 120
		}
	}

	rocket_engine_1 = { #rocket engines only come in sets of 1
		abbreviation = "re1"
		category = plane_rocket_engine_type
		sfx = sfx_ui_sd_module_engine

		add_stats = {
			thrust = 20
			build_cost_ic = 60

		}
		multiply_stats = {
			air_range = -0.85
			maximum_speed = 0.55
		}
		build_cost_resources = {
			tungsten = 3
		}
		dismantle_cost_ic = 20
	}

	rocket_engine_2 = { #rocket engines only come in sets of 1
		abbreviation = "re2"
		category = plane_rocket_engine_type
		sfx = sfx_ui_sd_module_engine

		add_stats = {
			thrust = 25
			build_cost_ic = 64
		}
		multiply_stats = {
			air_range = -0.75
			maximum_speed = 0.60
		}
		build_cost_resources = {
			tungsten = 3
		}
		dismantle_cost_ic = 28
	}

	rocket_engine_3 = { #rocket engines only come in sets of 1
		abbreviation = "re3"
		category = plane_rocket_engine_type
		sfx = sfx_ui_sd_module_engine

		add_stats = {

			thrust = 30
			build_cost_ic = 68
		}
		multiply_stats = {
			air_range = -0.7
			maximum_speed = 0.65
		}
		build_cost_resources = {
			tungsten = 3
		}
		dismantle_cost_ic = 40
	}

##      ## ########    ###    ########   #######  ##    ##  ######  
##  ##  ## ##         ## ##   ##     ## ##     ## ###   ## ##    ## 
##  ##  ## ##        ##   ##  ##     ## ##     ## ####  ## ##       
##  ##  ## ######   ##     ## ########  ##     ## ## ## ##  ######  
##  ##  ## ##       ######### ##        ##     ## ##  ####       ## 
##  ##  ## ##       ##     ## ##        ##     ## ##   ### ##    ## 
 ###  ###  ######## ##     ## ##         #######  ##    ##  ######  

	light_mg_2x = {
		abbreviation = "lmg2"
		category = fighter_weapon
		sfx = sfx_ui_sd_module_turret	
		add_equipment_type = { fighter heavy_fighter }

		add_stats = {
			air_attack = 4
			build_cost_ic = 4
			weight = 1
		}
		xp_cost = 0
		allow_mission_type = {
			air_superiority
			interception
		}
	}

	light_mg_4x = {
		abbreviation = "lmg4"
		category = fighter_weapon
		sfx = sfx_ui_sd_module_turret
		add_equipment_type = { fighter heavy_fighter }

		add_stats = {
			air_attack = 8
			build_cost_ic = 8
			weight = 2
		}
		xp_cost = 0
		allow_mission_type = {
			air_superiority
			interception
		}
		can_convert_from = {
			module = light_mg_2x
			convert_cost_ic = 4
		}
	}

	heavy_mg_2x = {
		abbreviation = "hmg2"
		category = fighter_weapon
		sfx = sfx_ui_sd_module_turret
		add_equipment_type = { fighter heavy_fighter }

		add_stats = {
			air_attack = 6
			build_cost_ic = 6
			weight = 2
		}
		xp_cost = 0
		allow_mission_type = {
			air_superiority
			interception
		}
	}

	heavy_mg_4x = {
		abbreviation = "hmg4"
		category = fighter_weapon
		sfx = sfx_ui_sd_module_turret
		add_equipment_type = { fighter heavy_fighter }

		add_stats = {
			air_attack = 12
			build_cost_ic = 12
			weight = 4
		}
		xp_cost = 0
		allow_mission_type = {
			air_superiority
			interception
		}
		mission_type_stats = {
			limit = {
				attack_logistics
			}
			add_stats = {
				air_ground_attack = 1
			}
		}
		can_convert_from = {
			module = heavy_mg_2x
			convert_cost_ic = 8
		}
	}

	aircraft_cannon_1_1x = {
		abbreviation = "ac11"
		category = fighter_weapon
		sfx = sfx_ui_sd_module_turret
		add_equipment_type = { fighter heavy_fighter }

		add_stats = {
			air_attack = 10
			build_cost_ic = 10
 			air_agility = -2.5
 			weight = 3
		}
		xp_cost = 0
		allow_mission_type = {
			air_superiority
			interception
		}
	}

	aircraft_cannon_1_2x = {
		abbreviation = "ac12"
		category = fighter_weapon
		sfx = sfx_ui_sd_module_turret
		add_equipment_type = { fighter heavy_fighter }

		add_stats = {
			air_attack = 20
			build_cost_ic = 20
 			air_agility = -5
 			weight = 6
		}
		xp_cost = 0
		allow_mission_type = {
			air_superiority
			interception
		}
		mission_type_stats = {
			limit = {
				attack_logistics
			}
			add_stats = {
				air_ground_attack = 2
			}
		}
		can_convert_from = {
			module = aircraft_cannon_1_1x
			convert_cost_ic = 12
		}
	}

	aircraft_cannon_2_1x = {
		abbreviation = "ac31"
		category = fighter_weapon
		sfx = sfx_ui_sd_module_turret
		parent = aircraft_cannon_1_1x
		add_equipment_type = { fighter heavy_fighter }
		add_stats = {
			air_attack = 12
			build_cost_ic = 12
 			air_agility = -2
 			weight = 3
		}
		xp_cost = 0
		allow_mission_type = {
			air_superiority
			interception
		}
	}

	aircraft_cannon_2_2x = {
		abbreviation = "ac32"
		category = fighter_weapon
		sfx = sfx_ui_sd_module_turret
		parent = aircraft_cannon_1_2x
		add_equipment_type = { fighter heavy_fighter }
		add_stats = {
			air_attack = 24
			build_cost_ic = 24
 			air_agility = -4
 			weight = 6
 		}
 		xp_cost = 0
 		allow_mission_type = {
 			air_superiority
 			interception
 		}
 		mission_type_stats = {
 			limit = {
 				attack_logistics
 			}
 			add_stats = {
 				air_ground_attack = 2
 			}
 		}
 		can_convert_from = {
 			module = aircraft_cannon_2_1x
 			convert_cost_ic = 16
 		}
 	}
 
 	large_aircraft_cannon_1x = {
 		abbreviation = "ac21"
 		category = fighter_weapon
 		sfx = sfx_ui_sd_module_turret
 		parent = aircraft_cannon_1_1x
 		add_equipment_type = { fighter heavy_fighter }
 		add_stats = {
 			air_attack = 11
 			build_cost_ic = 12
 			air_agility = -4
 			weight = 5
 		}
 		xp_cost = 0
 		allow_mission_type = {
 			air_superiority
 			interception
 		}
 	}
 
 	large_aircraft_cannon_2x = {
 		abbreviation = "ac22"
 		category = fighter_weapon
 		sfx = sfx_ui_sd_module_turret
 		parent = aircraft_cannon_1_2x
 		add_equipment_type = { fighter heavy_fighter }
 		add_stats = {
 			air_attack = 22
 			build_cost_ic = 6
 			air_agility = -8
			weight = 10
		}
		xp_cost = 0
		allow_mission_type = {
			air_superiority
			interception
		}
		mission_type_stats = {
			limit = {
				attack_logistics
			}
			add_stats = {
				air_ground_attack = 2
			}
		}
		can_convert_from = {
			module = aircraft_cannon_2_1x
			convert_cost_ic = 16
		}
	}

	bomb_locks = {
		abbreviation = "bol"
		category = cas_weapon
		sfx = sfx_ui_sd_module_turret
		add_equipment_type = cas

		add_stats = {
			build_cost_ic = 4
		}
		xp_cost = 0
		allow_mission_type = {
			cas
			attack_logistics
			naval_bomber
		}
		mission_type_stats = {
			limit = {
				cas
				attack_logistics
			}
			add_stats = {
				air_agility = -15
				weight = 4
				air_ground_attack = 6
			}
		}
		mission_type_stats = {
			limit = {
				naval_bomber
			}
			add_stats = {
				air_agility = -15
				weight = 4
				naval_strike_attack = 3
			}
			add_average_stats = {
				naval_strike_targetting = 4
			}
		}
		dismantle_cost_ic = 0.5
	}

	heavy_bomb_locks = {
		abbreviation = "bol"
		category = cas_weapon
		sfx = sfx_ui_sd_module_turret
		add_equipment_type = cas

		add_stats = {
			build_cost_ic = 4
		}
		xp_cost = 0
		allow_mission_type = {
			cas
			attack_logistics
			naval_bomber
		}
		mission_type_stats = {
			limit = {
				cas
				attack_logistics
			}
			add_stats = {
				air_agility = -20
				weight = 6
				air_ground_attack = 8
			}
		}
		mission_type_stats = {
			limit = {
				naval_bomber
			}
			add_stats = {
				air_agility = -20
				weight = 6
				naval_strike_attack = 3
			}
			add_average_stats = {
				naval_strike_targetting = 4
			}
		}
		dismantle_cost_ic = 2.0
	}

	armor_piercing_bomb_locks = {
		abbreviation = "bol"
		category = cas_weapon
		sfx = sfx_ui_sd_module_turret
		add_equipment_type = cas

		add_stats = {
			build_cost_ic = 4
		}
		xp_cost = 0
		allow_mission_type = {
			cas
			attack_logistics
			naval_bomber
		}
		mission_type_stats = {
			limit = {
				cas
				attack_logistics
			}
			add_stats = {
				air_agility = -20
				weight = 6
				air_ground_attack = 2
			}
		}
		mission_type_stats = {
			limit = {
				naval_bomber
			}
			add_stats = {
				air_agility = -20
				weight = 6
				naval_strike_attack = 6
			}
			add_average_stats = {
				naval_strike_targetting = 4
			}
		}
		dismantle_cost_ic = 8
	}

	rocket_rails = {
		abbreviation = "rrl"
		category = cas_weapon
		sfx = sfx_ui_sd_module_turret
		add_equipment_type = cas

		add_stats = {
			build_cost_ic = 4
		}
		xp_cost = 0
		allow_mission_type = {
			cas
			attack_logistics
		}
		mission_type_stats = {
			limit = {
				cas
				attack_logistics
			}
			add_stats = {
				air_ground_attack = 4
				weight = 1
			}
		}
		dismantle_cost_ic = 2
	}

	small_bomb_bay = {
		abbreviation = "sbb"
		category = cas_weapon
		sfx = sfx_ui_sd_module_turret
		add_equipment_type = { cas tactical_bomber }

		add_stats = {
			build_cost_ic = 12
			weight = 2
			
		}
		xp_cost = 0
		allow_mission_type = {
			cas
			attack_logistics
			port_strike
		}
		mission_type_stats = {
			limit = {
				cas
				attack_logistics
			}
			add_stats = {
				air_ground_attack = 8
				weight = 4
				air_agility = -15
			}
		}
		mission_type_stats = {
			limit = {
				port_strike
			}
			add_stats = {
				naval_strike_attack = 3
				weight = 4
				air_agility = -15
			}
			add_average_stats = {
				naval_strike_targetting = 4
			}
		}
		dismantle_cost_ic = 14
	}

	medium_bomb_bay = {
		abbreviation = "mbb"
		category = tac_weapon
		sfx = sfx_ui_sd_module_turret
		add_equipment_type = { cas tactical_bomber }

		add_stats = {
			build_cost_ic = 24
			weight = 1
		}
		xp_cost = 0
		allow_mission_type = {
			cas
			attack_logistics
			strategic_bomber
			port_strike
		}
		mission_type_stats = {
			limit = {
				cas
				attack_logistics
				port_strike
			}
			add_stats = {
				air_ground_attack = 6
				weight = 5
				air_agility = -15
			}
		}
		mission_type_stats = {
			limit = {
				strategic_bomber
			}
			add_stats = {
				air_bombing = 6
				weight = 5
				air_agility = -15
			}
		}
		dismantle_cost_ic = 28
	}

	large_bomb_bay = {
		abbreviation = "lbb"
		category = strat_weapon
		sfx = sfx_ui_sd_module_turret
		add_equipment_type = strategic_bomber

		add_stats = {
			build_cost_ic = 36
			air_agility = -15
			weight = 2
		}
		xp_cost = 0
		allow_mission_type = {
			strategic_bomber
			port_strike
		}
		mission_type_stats = {
			limit = {
				strategic_bomber
			}
			add_stats = {
				air_bombing = 15
				weight = 8
			}
		}
		mission_type_stats = {
			limit = {
				port_strike
			}
			add_stats = {
				naval_strike_attack = 3
				weight = 8
			}
		}
		dismantle_cost_ic = 48
	}

	tank_buster_1 = {
		abbreviation = "tb1"
		category = cas_weapon
		sfx = sfx_ui_sd_module_turret
		add_equipment_type = cas

		add_stats = {
			air_ground_attack = 8
			build_cost_ic = 20
			weight = 8
			air_agility = -15
		}
		xp_cost = 0
		allow_mission_type = {
			cas
			attack_logistics
		}
		dismantle_cost_ic = 6
	}

	tank_buster_2 = {
		abbreviation = "tb2"
		category = cas_weapon
		sfx = sfx_ui_sd_module_turret
		add_equipment_type = cas

		add_stats = {
			air_ground_attack = 15
			build_cost_ic = 32
			weight = 12
			air_agility = -20
		}
		xp_cost = 0
		allow_mission_type = {
			cas
			attack_logistics
		}
		dismantle_cost_ic = 14
	}

	torpedo_mounting = {
		abbreviation = "tpm"
		category = nav_bomber_weapon
		sfx = sfx_ui_sd_module_turret
		add_equipment_type = { naval_bomber maritime_patrol_plane }

		add_stats = {
			build_cost_ic = 16
		}
		xp_cost = 0
		allow_mission_type = {
			naval_bomber
			port_strike
			naval_patrol
		}
		mission_type_stats = {
			limit = {
				naval_bomber
				port_strike
			}
			add_stats = {
				air_agility = -12
				weight = 5
				naval_strike_attack = 12
			}
			add_average_stats = {
				naval_strike_targetting = 4
			}
		}
		dismantle_cost_ic = 6
	}

	torpedo_mounting_2 = {
		abbreviation = "tpm"
		category = nav_bomber_weapon
		sfx = sfx_ui_sd_module_turret
		add_equipment_type = { naval_bomber maritime_patrol_plane }

		add_stats = {
			build_cost_ic = 16
		}
		xp_cost = 0
		allow_mission_type = {
			naval_bomber
			port_strike
			naval_patrol
		}
		mission_type_stats = {
			limit = {
				naval_bomber
				port_strike
			}
			add_stats = {
				air_agility = -12
				weight = 8
				naval_strike_attack = 17
			}
			add_average_stats = {
				naval_strike_targetting = 8
			}
		}
		dismantle_cost_ic = 6
	}

	torpedo_mounting_3 = {
		abbreviation = "tpm"
		category = nav_bomber_weapon
		sfx = sfx_ui_sd_module_turret
		add_equipment_type = { naval_bomber maritime_patrol_plane }

		add_stats = {
			build_cost_ic = 16
		}
		xp_cost = 0
		allow_mission_type = {
			naval_bomber
			port_strike
			naval_patrol
		}
		mission_type_stats = {
			limit = {
				naval_bomber
				port_strike
			}
			add_stats = {
				air_agility = -12
				weight = 11
				naval_strike_attack = 22
			}
			add_average_stats = {
				naval_strike_targetting = 10
			}
		}
		dismantle_cost_ic = 6
	}

	recon_camera = {
		abbreviation = "rca"
		category = recon_camera
		sfx = sfx_ui_sd_module_turret
		add_equipment_type = scout_plane
		forbid_equipment_type_exact_match_for_category = {
			fighter_weapon = scout_plane
			cas_weapon = scout_plane
			nav_bomber_weapon = scout_plane
			tac_weapon = scout_plane
			mine_warfare_offense = scout_plane
		}

		add_stats = {
			build_cost_ic = 4
			weight = 1
		}
		xp_cost = 0
		allow_mission_type = {
			recon
		}
	}

	airdropped_mines = {
		abbreviation = "adm"
		category = mine_warfare_offense
		sfx = sfx_ui_sd_module_turret

		add_stats = {
			build_cost_ic = 8
			weight = 2
			mines_planting = 0.05
		}
		xp_cost = 0
		allow_mission_type = {
			naval_mines_planting
		}
	}

	guided_anti_ship_missile = {
		abbreviation = "asm"
		category = nav_bomber_weapon
		sfx = sfx_ui_sd_module_turret
		add_equipment_type = { naval_bomber maritime_patrol_plane }

		add_stats = {	
			build_cost_ic = 60
		}
		xp_cost = 0
		allow_mission_type = {
			naval_bomber
			port_strike
			naval_patrol
		}
		mission_type_stats = {
			limit = {
				naval_bomber
				port_strike
			}
			add_stats = {
				air_agility = -20
				weight = 20
				naval_strike_attack = 25 # 8
			}
			add_average_stats = {
				naval_strike_targetting = 10
			}
		}
	}

	fixed_explosive_charge = {
		abbreviation = "fec"
		category = kamikaze_bomber_weapon
		gui_category = nav_bomber_weapon
		sfx = sfx_ui_sd_module_turret
		add_equipment_type = suicide

		add_stats = {	
			build_cost_ic = 16
			air_agility = -10
			air_defence = -5
		}
		xp_cost = 0
		allow_mission_type = {
			naval_kamikaze
		}
		mission_type_stats = {
			limit = {
				naval_kamikaze
			}
			add_stats = {
				naval_strike_attack = 6
				naval_strike_targetting = 10
			}
		}
		dismantle_cost_ic = 16
	}

 ######  ########  ########  ######  ####    ###    ##          ##     ##  #######  ########  ##     ## ##       ########  ######                 ######  ##     ##    ###    ##       ##       
##    ## ##     ## ##       ##    ##  ##    ## ##   ##          ###   ### ##     ## ##     ## ##     ## ##       ##       ##    ##               ##    ## ###   ###   ## ##   ##       ##       
##       ##     ## ##       ##        ##   ##   ##  ##          #### #### ##     ## ##     ## ##     ## ##       ##       ##                     ##       #### ####  ##   ##  ##       ##       
 ######  ########  ######   ##        ##  ##     ## ##          ## ### ## ##     ## ##     ## ##     ## ##       ######    ######     #######     ######  ## ### ## ##     ## ##       ##       
      ## ##        ##       ##        ##  ######### ##          ##     ## ##     ## ##     ## ##     ## ##       ##             ##                     ## ##     ## ######### ##       ##       
##    ## ##        ##       ##    ##  ##  ##     ## ##          ##     ## ##     ## ##     ## ##     ## ##       ##       ##    ##               ##    ## ##     ## ##     ## ##       ##       
 ######  ##        ########  ######  #### ##     ## ########    ##     ##  #######  ########   #######  ######## ########  ######                 ######  ##     ## ##     ## ######## ######## 

	armor_plate_small = {
		abbreviation = "aps"
		category = plane_special_module_small
		sfx = sfx_ui_sd_module_turret

		add_stats = {
			air_defence = 4
			build_cost_ic = 4
			weight = 2
		}

		multiply_stats = {
			air_range = -0.1
		}
		xp_cost = 0
		dismantle_cost_ic = 2
	}


	fuel_tanks_small = {
		abbreviation = "fts"
		category = plane_special_module_small
		sfx = sfx_ui_sd_module_turret

		add_stats = {
			air_defence = -2
			build_cost_ic = 4
			weight = 2
		}
		multiply_stats = {
			air_range = 0.5
		}
		xp_cost = 0
		dismantle_cost_ic = 2
	}

	self_sealing_fuel_tanks_small = {
		abbreviation = "ssf"
		category = plane_special_module_small
		sfx = sfx_ui_sd_module_turret

		add_stats = {
			air_defence = 6
			build_cost_ic = 4
			weight = 1
		}
		build_cost_resources = {
			rubber = 1
		}
		xp_cost = 0
		dismantle_cost_ic = 2
	}

	non_strategic_materials_small = {
		abbreviation = "nsms"
		category = plane_special_module_small
		sfx = sfx_ui_sd_module_turret

		add_stats = {
			air_defence = -6
			build_cost_ic = 0
		}
		multiply_stats = {
			build_cost_ic = -0.075
		}
		build_cost_resources = {
			aluminium = -2
		}
		dismantle_cost_ic = 28
		dismantle_cost_resources = {
			aluminium = 2
		}
		xp_cost = 0
	}

	drop_tanks = {
		abbreviation = "dpt"
		category = plane_special_module_small
		sfx = sfx_ui_sd_module_turret

		add_stats = {
			build_cost_ic = 8
			weight = 3
		}

		multiply_stats = {
			air_range = 0.25
		}
		xp_cost = 0
	}

	dive_brakes_small = {
		abbreviation = "dbs"
		category = plane_special_module_small
		sfx = sfx_ui_sd_module_turret

		forbid_module_categories = {
			nav_bomber_weapon
		}

		add_stats = {
			build_cost_ic = 8
			weight = 2
		}

		mission_type_stats = {
			limit = {
				cas
				naval_bomber
				port_strike
			}
			add_stats = {
				naval_strike_targetting = 6
				air_defence = 4
			}
		}
		dismantle_cost_ic = 8 #you essentially have to redesign part of the wing
		xp_cost = 0
	}

	floats = { 
		abbreviation = "flo"
		category = plane_special_module_small
		sfx = sfx_ui_sd_module_turret

		add_stats = {
			build_cost_ic = 4
			weight = 1
			air_agility = -5
			surface_detection = 5
			sub_detection = 3
		}
		multiply_stats = {
			maximum_speed = -0.3
		}
		dismantle_cost_ic = 10
		xp_cost = 0
	}

 ######  ########  ########  ######  ####    ###    ##          ##     ##  #######  ########  ##     ## ##       ########  ######                ##     ## ######## ########  #### ##     ## ##     ## 
##    ## ##     ## ##       ##    ##  ##    ## ##   ##          ###   ### ##     ## ##     ## ##     ## ##       ##       ##    ##               ###   ### ##       ##     ##  ##  ##     ## ###   ### 
##       ##     ## ##       ##        ##   ##   ##  ##          #### #### ##     ## ##     ## ##     ## ##       ##       ##                     #### #### ##       ##     ##  ##  ##     ## #### #### 
 ######  ########  ######   ##        ##  ##     ## ##          ## ### ## ##     ## ##     ## ##     ## ##       ######    ######     #######    ## ### ## ######   ##     ##  ##  ##     ## ## ### ## 
      ## ##        ##       ##        ##  ######### ##          ##     ## ##     ## ##     ## ##     ## ##       ##             ##               ##     ## ##       ##     ##  ##  ##     ## ##     ## 
##    ## ##        ##       ##    ##  ##  ##     ## ##          ##     ## ##     ## ##     ## ##     ## ##       ##       ##    ##               ##     ## ##       ##     ##  ##  ##     ## ##     ## 
 ######  ##        ########  ######  #### ##     ## ########    ##     ##  #######  ########   #######  ######## ########  ######                ##     ## ######## ########  ####  #######  ##     ## 

	armor_plate_medium = {
		abbreviation = "apm"
		category = plane_special_module_medium
		sfx = sfx_ui_sd_module_turret

		add_stats = {
			air_defence = 6
			build_cost_ic = 12
			weight = 6
		}
		multiply_stats = {
			air_range = -0.1
		}
		xp_cost = 0
		dismantle_cost_ic = 4
	}

	fuel_tanks_medium = {
		abbreviation = "ftm"
		category = plane_special_module_medium
		sfx = sfx_ui_sd_module_turret

		add_stats = {
			air_defence = -6
			build_cost_ic = 8
			weight = 5
		}
		multiply_stats = {
			air_range = 0.5
		}
		xp_cost = 0
		dismantle_cost_ic = 4
	}

	self_sealing_fuel_tanks_medium = {
		abbreviation = "ssm"
		category = plane_special_module_medium
		sfx = sfx_ui_sd_module_turret

		add_stats = {
			air_defence = 8
			build_cost_ic = 6
			weight = 1
		}
		build_cost_resources = {
			rubber = 2
		}
		dismantle_cost_ic = 4
		xp_cost = 0
	}

	non_strategic_materials_medium = {
		abbreviation = "nsmm"
		category = plane_special_module_medium
		sfx = sfx_ui_sd_module_turret

		add_stats = {
			air_defence = -8
			build_cost_ic = 0
			weight = 0
		}
		multiply_stats = {
			build_cost_ic = -0.075
		}
		build_cost_resources = {
			aluminium = -2
		}
		xp_cost = 0
		dismantle_cost_ic = 48
		dismantle_cost_resources = {
			aluminium = 2
		}
	}

	flying_boat_medium = { 
		abbreviation = "flbm"
		category = plane_special_module_medium
		sfx = sfx_ui_sd_module_turret

		add_stats = {
			build_cost_ic = 16
			surface_detection = 8
			sub_detection = 3
		}
		multiply_stats = {
			maximum_speed = -0.4
		}
		dismantle_cost_ic = 8
		xp_cost = 0
	}

	demining_coil = {
		abbreviation = "dmc"
		category = mine_warfare_defense
		sfx = sfx_ui_sd_module_turret

		add_stats = {	
			build_cost_ic = 12
			weight = 20
			air_agility = -5
			mines_sweeping = 0.1
		}
		xp_cost = 0
		allow_mission_type = {
			naval_mines_sweeping
		}
		dismantle_cost_ic = 4
	}

 ######  ########  ########  ######  ####    ###    ##          ##     ## ########   #######  ##     ## ##       ########  ######                ##          ###    ########   ######   ######## 
##    ## ##     ## ##       ##    ##  ##    ## ##   ##          ###   ### ##     ## ##     ## ##     ## ##       ##       ##    ##               ##         ## ##   ##     ## ##    ##  ##       
##       ##     ## ##       ##        ##   ##   ##  ##          #### #### ##     ## ##     ## ##     ## ##       ##       ##                     ##        ##   ##  ##     ## ##        ##       
 ######  ########  ######   ##        ##  ##     ## ##          ## ### ## ##     ## ##     ## ##     ## ##       ######    ######     #######    ##       ##     ## ########  ##   #### ######   
      ## ##        ##       ##        ##  ######### ##          ##     ## ##     ## ##     ## ##     ## ##       ##             ##               ##       ######### ##   ##   ##    ##  ##       
##    ## ##        ##       ##    ##  ##  ##     ## ##          ##     ## ##     ## ##     ## ##     ## ##       ##       ##    ##               ##       ##     ## ##    ##  ##    ##  ##       
 ######  ##        ########  ######  #### ##     ## ########    ##     ## ########   #######   #######  ######## ########  ######                ######## ##     ## ##     ##  ######   ######## 

	armor_plate_large = {
		abbreviation = "apl"
		category = plane_special_module_large
		sfx = sfx_ui_sd_module_turret

		add_stats = {
			air_defence = 8
			build_cost_ic = 20
			weight = 15
		}
		multiply_stats = {
			air_range = -0.1
		}
		xp_cost = 0
		dismantle_cost_ic = 4
	}

	fuel_tanks_large = {
		abbreviation = "ftl"
		category = plane_special_module_large
		sfx = sfx_ui_sd_module_turret

		add_stats = {
			air_defence = -8
			build_cost_ic = 16
			weight = 8
		}
		multiply_stats = {
			air_range = 0.50
		}
		xp_cost = 0
		dismantle_cost_ic = 6
	}

	self_sealing_fuel_tanks_large = {
		abbreviation = "ssl"
		category = plane_special_module_large
		sfx = sfx_ui_sd_module_turret

		add_stats = {
			air_defence = 10
			build_cost_ic = 8
			weight = 1
		}
		build_cost_resources = {
			rubber = 2
		}
		dismantle_cost_ic = 6
		xp_cost = 0
	}

	non_strategic_materials_large = {
		abbreviation = "nsml"
		category = plane_special_module_large
		sfx = sfx_ui_sd_module_turret

		add_stats = {
			air_defence = -10
			build_cost_ic = 0
			weight = 0
		}
		multiply_stats = {
			build_cost_ic = -0.075
		}
		build_cost_resources = {
			aluminium = -3
		}
		dismantle_cost_ic = 88
		dismantle_cost_resources = {
			aluminium = 3
		}
		xp_cost = 0
	}

	flying_boat_large = { 
		abbreviation = "flbl"
		category = plane_special_module_large
		sfx = sfx_ui_sd_module_turret

		add_stats = {
			build_cost_ic = 16
			surface_detection = 12
			sub_detection = 5
		}
		multiply_stats = {
			maximum_speed = -0.4
		}
		xp_cost = 0
		dismantle_cost_ic = 20
	}


######## ##       ########  ######  ######## ########   #######  ##    ## ####  ######   ######  
##       ##       ##       ##    ##    ##    ##     ## ##     ## ###   ##  ##  ##    ## ##    ## 
##       ##       ##       ##          ##    ##     ## ##     ## ####  ##  ##  ##       ##       
######   ##       ######   ##          ##    ########  ##     ## ## ## ##  ##  ##        ######  
##       ##       ##       ##          ##    ##   ##   ##     ## ##  ####  ##  ##             ## 
##       ##       ##       ##    ##    ##    ##    ##  ##     ## ##   ###  ##  ##    ## ##    ## 
######## ######## ########  ######     ##    ##     ##  #######  ##    ## ####  ######   ######  

	bomb_sights_1 = {
		abbreviation = "bs1"
		category = plane_special_module_bomb_sights
		gui_category = plane_special_module_electronics
		sfx = sfx_ui_sd_module_turret

		add_stats = {
			air_bombing = 4
			build_cost_ic = 6
			weight = 1
		}
		xp_cost = 0
	}

	bomb_sights_2 = {
		abbreviation = "bs2"
		category = plane_special_module_bomb_sights
		gui_category = plane_special_module_electronics
		sfx = sfx_ui_sd_module_turret
		parent = bomb_sights_1

		add_stats = {
			air_bombing = 6
			build_cost_ic = 8
			weight = 1
		}
		xp_cost = 0
	}

	radio_navigation_1 = {
		abbreviation = "rn1"
		category = plane_special_module_radio_navigation
		gui_category = plane_special_module_electronics
		sfx = sfx_ui_sd_module_turret

		add_stats = {
			air_bombing = 4
			build_cost_ic = 4
			weight = 1
			night_penalty = -0.1
		}
		xp_cost = 0
	}

	radio_navigation_2 = {
		abbreviation = "rn2"
		category = plane_special_module_radio_navigation
		gui_category = plane_special_module_electronics
		sfx = sfx_ui_sd_module_turret
		parent = radio_navigation_1

		add_stats = {
			air_bombing = 6
			build_cost_ic = 6
			weight = 1
			night_penalty = -0.2
		}
		xp_cost = 0
	}

	air_ground_radar_1 = {
		abbreviation = "agr1"
		category = plane_special_module_air_ground_radar
		gui_category = plane_special_module_electronics
		sfx = sfx_ui_sd_module_turret

		add_stats = {
				build_cost_ic = 8
				weight = 2
			}

		mission_type_stats = {
			limit = {
				naval_bomber
				port_strike
				strategic_bomber
				naval_patrol
			}
			add_stats = {
				air_bombing = 4
				night_penalty = -0.3
				surface_detection = 10
				sub_detection = 5
			}
		}
		xp_cost = 0
	}

	air_ground_radar_2 = {
		abbreviation = "agr2"
		category = plane_special_module_air_ground_radar
		gui_category = plane_special_module_electronics
		sfx = sfx_ui_sd_module_turret
		parent = air_ground_radar_1

		add_stats = {
				build_cost_ic = 14
				weight = 2
		}

		mission_type_stats = {
			limit = {
				naval_bomber
				port_strike
				strategic_bomber
				naval_patrol
			}
			add_stats = {
				air_bombing = 6
				night_penalty = -0.4
				surface_detection = 20
				sub_detection = 10
			}
		}
		xp_cost = 0
	}

	air_air_radar_1 = {
		abbreviation = "aar1"
		category = plane_special_module_air_air_radar
		gui_category = plane_special_module_electronics
		sfx = sfx_ui_sd_module_turret

		add_stats = {
			build_cost_ic = 16
			weight = 1	
		}
		mission_type_stats = {
			limit = {
				interception
			}
			add_stats = {
				night_penalty = -0.2
			}
		}
		xp_cost = 0
	}

	air_air_radar_2 = {
		abbreviation = "aar2"
		category = plane_special_module_air_air_radar
		gui_category = plane_special_module_electronics
		sfx = sfx_ui_sd_module_turret
		parent = air_air_radar_1

		add_stats = {
			build_cost_ic = 24
			weight = 2
		}
		mission_type_stats = {
			limit = {
				interception
			}
			add_stats = {
				night_penalty = -0.4
			}
		}
		xp_cost = 0
	}

########  ######## ######## ######## ##    ##  ######  #### ##     ## ########    ######## ##     ## ########  ########  ######## ########  ######  
##     ## ##       ##       ##       ###   ## ##    ##  ##  ##     ## ##             ##    ##     ## ##     ## ##     ## ##          ##    ##    ## 
##     ## ##       ##       ##       ####  ## ##        ##  ##     ## ##             ##    ##     ## ##     ## ##     ## ##          ##    ##       
##     ## ######   ######   ######   ## ## ##  ######   ##  ##     ## ######         ##    ##     ## ########  ########  ######      ##     ######  
##     ## ##       ##       ##       ##  ####       ##  ##   ##   ##  ##             ##    ##     ## ##   ##   ##   ##   ##          ##          ## 
##     ## ##       ##       ##       ##   ### ##    ##  ##    ## ##   ##             ##    ##     ## ##    ##  ##    ##  ##          ##    ##    ## 
########  ######## ##       ######## ##    ##  ######  ####    ###    ########       ##     #######  ##     ## ##     ## ########    ##     ######  

	lmg_defense_turret = {
		abbreviation = "lmgt"
		category = plane_special_module_defense_turret
		sfx = sfx_ui_sd_module_turret

		add_stats = {
			build_cost_ic = 4
			weight = 1
			air_attack = 1
			air_defence = 1
		}

		mission_type_stats = {
			limit = {
				naval_bomber
				port_strike
				strategic_bomber
				naval_patrol
				cas
				attack_logistics
				naval_mines_planting
			}

			add_stats = {
				air_agility = 0.5
			}
		}

		multiply_stats ={
			maximum_speed = -0.03
		}

		dismantle_cost_ic = 4
		can_convert_from = {
			module_category = plane_special_module_defense_turret
			convert_cost_ic = 6
		}
		can_convert_from = {
			module = lmg_defense_turret
			convert_cost_ic = 4
		}
		can_convert_from = {
			module = cannon_defense_turret
			convert_cost_ic = 4
		}
		xp_cost = 0
	}

	lmg_defense_turret_2x = {
		abbreviation = "lmgt2"
		category = plane_special_module_defense_turret_x2
		gui_category = plane_special_module_defense_turret
		sfx = sfx_ui_sd_module_turret

		add_stats = {
			build_cost_ic = 8
			weight = 2
			air_attack = 1.5
			air_defence = 2
		}

		mission_type_stats = {
			limit = {
				naval_bomber
				port_strike
				strategic_bomber
				naval_patrol
				cas
				attack_logistics
				naval_mines_planting
			}

			add_stats = {
				air_agility = 1
			}
		}

		multiply_stats ={
			maximum_speed = -0.06
		}

		dismantle_cost_ic = 8
		can_convert_from = {
			module_category = plane_special_module_defense_turret_x2
			convert_cost_ic = 10
		}
		can_convert_from = {
			module = hmg_defense_turret_2x
			convert_cost_ic = 9
		}
		can_convert_from = {
			module = cannon_defense_turret_2x
			convert_cost_ic = 9
		}
		xp_cost = 0
	}

	hmg_defense_turret = {
		abbreviation = "hmgt"
		category = plane_special_module_defense_turret
		gui_category = plane_special_module_defense_turret
		sfx = sfx_ui_sd_module_turret

		add_stats = {
			build_cost_ic = 8
			weight = 2
			air_attack = 1.5
			air_defence = 2
		}

		mission_type_stats = {
			limit = {
				naval_bomber
				port_strike
				strategic_bomber
				naval_patrol
				cas
				attack_logistics
				naval_mines_planting
			}
			add_stats = {
				air_agility = 1
			}
		}

		multiply_stats ={
			maximum_speed = -0.035
		}

		dismantle_cost_ic = 4
		can_convert_from = {
			module_category = plane_special_module_defense_turret
			convert_cost_ic = 11
		}
		can_convert_from = {
			module = lmg_defense_turret
			convert_cost_ic = 8
		}
		can_convert_from = {
			module = cannon_defense_turret
			convert_cost_ic = 8
		}
		xp_cost = 0
	}

	hmg_defense_turret_2x = {
		abbreviation = "hmgt2"
		category = plane_special_module_defense_turret_x2
		gui_category = plane_special_module_defense_turret
		sfx = sfx_ui_sd_module_turret

		add_stats = {	
			build_cost_ic = 16
			weight = 4
			air_attack = 3
			air_defence = 4
		}

		mission_type_stats = {
			limit = {
				naval_bomber
				port_strike
				strategic_bomber
				naval_patrol
				cas
				attack_logistics
				naval_mines_planting
			}
			add_stats = {
				air_agility = 2
			}
		}

		multiply_stats ={
			maximum_speed = -0.07
		}

		dismantle_cost_ic = 8
		can_convert_from = {
			module_category = plane_special_module_defense_turret_x2
			convert_cost_ic = 16
		}
		can_convert_from = {
			module = lmg_defense_turret_2x
			convert_cost_ic = 12
		}
		can_convert_from = {
			module = cannon_defense_turret_2x
			convert_cost_ic = 12
		}
		xp_cost = 0
	}

	cannon_defense_turret = {
		abbreviation = "cat"
		category = plane_special_module_defense_turret
		gui_category = plane_special_module_defense_turret
		sfx = sfx_ui_sd_module_turret

		add_stats = {
			build_cost_ic = 16
			weight = 4
			air_attack = 3
			air_defence = 4
		}

		mission_type_stats = {
			limit = {
				naval_bomber
				port_strike
				strategic_bomber
				naval_patrol
				cas
				attack_logistics
				naval_mines_planting
			}
			add_stats = {
				air_agility = 2
			}
		}

		multiply_stats ={
			maximum_speed = -0.037
		}

		dismantle_cost_ic = 4
		can_convert_from = {
			module_category = plane_special_module_defense_turret
			convert_cost_ic = 12
		}
		can_convert_from = {
			module = hmg_defense_turret
			convert_cost_ic = 10
		}
		xp_cost = 0
	}

	cannon_defense_turret_2x = {
		abbreviation = "cat2"
		category = plane_special_module_defense_turret_x2
		gui_category = plane_special_module_defense_turret
		sfx = sfx_ui_sd_module_turret

		add_stats = {
			build_cost_ic = 32
			weight = 8
			air_attack = 6
			air_defence = 8
		}

		mission_type_stats = {
			limit = {
				naval_bomber
				port_strike
				strategic_bomber
				naval_patrol
				cas
				attack_logistics
				naval_mines_planting
			}
			add_stats = {
				air_agility = 4
			}
		}

		multiply_stats ={
			maximum_speed = -0.075
		}

		dismantle_cost_ic = 8
		can_convert_from = {
			module_category = plane_special_module_defense_turret_x2
			convert_cost_ic = 24
		}
		can_convert_from = {
			module = hmg_defense_turret_2x
			convert_cost_ic = 20
		}
		xp_cost = 0
	}

}
