
state={
	id=301
	name="STATE_301"
	manpower = 890100
	
	state_category = town
	
	history={
		owner = BKB
		buildings = {
			infrastructure = 2
			arms_factory = 1
			industrial_complex = 3
			air_base = 1
		}
		add_core_of = BKB
		victory_points = {
			2152 5 
		}

	}

	provinces={
		2152 2173 2194 11023 12901 
	}
	

	local_supplies=0.0 
}
