
state={
	id=342
	name="STATE_342" # Antalya
	manpower = 362689
	resources={
		chromium=35 # was: 46
	}
	state_category = rural

	history={
		owner = BKB
		victory_points = {
			1005 5 
		}
		buildings = {
			infrastructure = 2
			industrial_complex = 1
			1005 = {
				naval_base = 4
			}
		}
		add_core_of = BKB
	}

	provinces={
		1005 1119 9941 10122 11917 12013 12016 12096 
	}

	local_supplies=7.0 
}
