
state={
	id=349
	name="STATE_349"
	manpower = 592821
	
	state_category = rural

	history={
		owner = BKB
		victory_points = {
			9777 3 
		}
		buildings = {
			infrastructure = 2
		}
		add_core_of = BKB
	}

	provinces={
		3890 3903 3950 6919 6950 6965 9761 9777 
	}

	local_supplies=0.0 
}
