
state={
	id=355
	name="STATE_355"
	manpower = 1151863
	state_category = rural

	history={
		owner = BKB
		victory_points = {
			11881 10
		}
		buildings = {
			infrastructure = 2
			11881 = {
				naval_base = 3
			}
		}
		add_core_of = BKB
	}

	provinces={
		933 960 975 3935 3965 9900 9915 11881 11894 
	}

	local_supplies=0.0 
}
