
state={
	id=418
	name="STATE_418"
	manpower = 332362
	
	state_category = wasteland

	history={
		owner = BKB
		buildings = {
			infrastructure = 1
		}
		victory_points = {
			8093 1 
		}
		add_core_of = BKB
	}

	provinces={
		8009 8093 10873 11671 12704 12748 12818 
	}

	local_supplies=0.0 
}
