
state={
	id=474
	name="STATE_474"
	manpower = 440289
	
	state_category = rural

	history={
		owner = BKB
		buildings = {
			infrastructure = 2
			air_base = 1
			4904 = {
				naval_base = 2
			}
			4965 = {
				naval_base = 3
			}
		}
		add_core_of = BKB
		#victory_points = {
		#	12715 3
		#}
		victory_points = {
			4904 1
		}
		#victory_points = {
		#	4965 5
		#}
	}

	provinces={
		4904 4965 12715 
	}
	

	local_supplies=0.0 
}
