
state={
	id=476
	name="STATE_476"
	manpower = 1663331
	
	state_category = rural

	resources={
		oil=8
	}
	
	history={
		owner = BKB
		buildings = {
			infrastructure = 2
			air_base = 2
			10889 = {
				naval_base = 2
			}
		}
		add_core_of = BKB
		victory_points = {
			10889 1
		}
		victory_points = {
			2021 3
		}
	}

	provinces={
		2021 8236 10773 10889 12712 
	}
	

	local_supplies=8.0 
}
