
state={
	id=491
	name="STATE_491"
	manpower = 176626

	state_category = pastoral

	history={
		owner = BKB
		buildings = {
			infrastructure = 2
		}
		add_core_of = BKB
	}

	provinces={
		5162 8213 10970 12869 
	}

	local_supplies=0.0 
}
