
state={
	id=494
	name="STATE_494"
	manpower = 735826
	
	state_category = rural
	

	history={
		owner = BKB
		buildings = {
			infrastructure = 2
		}
		add_core_of = BKB
	}

	provinces={
		2212 2226 5166 8160 8191 10940 
	}

	local_supplies=0.0 
}
