
state={
	id=502
	name="STATE_502"
	manpower = 2959600
	
	state_category = town

	history={
		owner = BKB
		buildings = {
			infrastructure = 3 #was: 5
			air_base = 2
			10447 = {
				naval_base = 3
			}
		}
		add_core_of = BKB
		victory_points = {
			10447 3 
		}

	}

	provinces={
		1542 1585 1598 4436 4575 4589 4604 5110 7581 7594 7638 10447 12396 
	}

	local_supplies=0.0 
}
