
state={
	id=503
	name="STATE_503"
	manpower = 1922700
	
	state_category = rural

	history={
		owner = BKB
		buildings = {
			infrastructure = 3 #was: 5
			air_base = 1
		}
		add_core_of = BKB
	}

	provinces={
		1529 2109 4533 4548 4587 5156 5178 8181 8239 10405 12466 
	}

	local_supplies=0.0 
}
