
state={
	id=538
	name="STATE_538"
	resources={
		rubber=5.000
	}
	state_category = pastoral
	manpower = 1693974

	history={
		owner = BEL
		buildings = {
			infrastructure = 1

		}
		add_core_of = BKB

	}

	provinces={
		988 7219 7931 8048 10071 10883 10951 12741 12824 
	}
	
	buildings_max_level_factor=1.000
	
	local_supplies=1.000
}
