
state={
	id=544
	name="STATE_544"
	manpower = 1226000
	history={
		owner = BKB
		buildings = {
			infrastructure = 2
			industrial_complex = 1
			8245 = {
				naval_base = 1
			}

		}
		victory_points = {
			8245 1 
		}
		add_core_of = BKB

	}

	provinces={
		2193 5177 5212 8245 
	}

	buildings_max_level_factor=1.000
	state_category=rural
	local_supplies=0.000
}
