
state={
	id=557
	name="STATE_557" # Mauritania
	manpower = 225000
	
	state_category = pastoral

	history={
		owner = FRA
		add_core_of = BKB
		victory_points = {
			5034 1
		}
		buildings = {
			infrastructure = 1
		}

	}

	provinces={
		5034 5077 7992 8058 10814
	}

	local_supplies=0.0 
}
