
state={
	id=636
	name="STATE_636"
	manpower = 180000
	
	state_category = small_island

	history={
		owner = USA
		add_core_of = BKB
		buildings = {
			infrastructure = 2
			4286 = {
				naval_base = 1
			}
		}
		
		victory_points = {
			4286 1 
		}
	}
	
	provinces={
		4286 7302 12159 
	}

	local_supplies=0.0 
}
