
state={
	id=659
	name="STATE_659"
	manpower=871202

	history={
		owner = ENG
		victory_points = {
			5074 1 
		}
		buildings = {
			infrastructure = 2
			air_base = 4
			5074 = {
				naval_base = 3

			}
			
		}
		add_core_of = BKB

	}

	provinces={
		2029 4976 5074 12821 12894 13079 
	}
	
	buildings_max_level_factor=1.000
	state_category=pastoral
	local_supplies=0.000
}
