state={
	id=661
	name="STATE_661"
	manpower = 17617
	
	state_category = wasteland
	
	history={
		owner = ITA
		buildings = {
			infrastructure = 1
		}
		add_core_of = BKB
	}
	
	provinces={
		1174 4051 4117 4176 7154 7194 10037 10067 11940 12009 
	}

	local_supplies=0.0 
}
