state={
	id=663
	name="STATE_663"
	manpower = 8808
	
	state_category = wasteland

	history={
		owner = ITA
		buildings = {
			infrastructure = 1
		}
		add_core_of = BKB
	}

	provinces={
		1062 1186 4060 4063 4133 7063 7139 7206 9977 10049 12025 12079 13078 
	}

	local_supplies=0.0 
}
