state={
	id=676
	name="STATE_676"
	manpower = 1182741
	
	state_category = town
	
	resources={
		oil=18 # was: 10
	}


	history={
		owner = ENG
		buildings = {
			infrastructure = 2
		}
		victory_points = {
			10106 5 
		}
		victory_points = {
			3916 3 
		}
		victory_points = {
			6826 1
		}
		add_core_of = BKB
	}
	
	provinces={
		1600 1938 3916 5014 6826 8123 10106 10793 10804 10811 12372 
	}

	local_supplies=0.0 
}
