state={
	id=687
	name="STATE_687"
	manpower = 309000
	
	state_category = pastoral
	
	resources={
		aluminium=64 # was: 112
	}

	history={
		add_core_of = BKB
		owner = ENG
		victory_points = {
			4982 1
		}
		buildings = {
			infrastructure = 1
			4982 = {
				naval_base = 1
			}
		}
	}
	
	provinces={
		4982 8107 12716 
	}

	local_supplies=5.0 
}
