state={
	id=688
	name="STATE_688"
	manpower = 45900
	
	state_category = pastoral
	
	resources={
		tungsten=3 # was: 4
		steel=2 # was: 2
	}

	history={
		owner = BKB
		buildings = {
			infrastructure = 1
		}
		add_core_of = BKB
	}
	
	provinces={
		2195 2209 5165 8203 10973 
	}

	local_supplies=0.0 
}
