state={
	id=711
	name="STATE_711"
	manpower=1625	
	state_category = tiny_island
	
	history=
	{
		owner = USA
		buildings = {
			infrastructure = 2
			13005 = {
				naval_base = 1
			}
		}
	}
	
	provinces={
		13005 
	}

	local_supplies=0.0 
}
