state={
	id=712
	name="STATE_712"
	manpower=42	
	state_category = tiny_island
	
	history=
	{
		owner = USA
		buildings = {
			infrastructure = 2
			13002 = {
				naval_base = 1
			}
		}
	}
	
	provinces={
		13002 
	}

	local_supplies=0.0 
}
