state={
	id=733
	name="STATE_733"
	manpower=29500
	state_category = small_island
	
	history={
		owner = USA
		add_core_of = BKB
		buildings = {
			infrastructure = 2
			12251 = {
				naval_base = 2

			}
		}

	}
	provinces={
		10321 12251 
	}

	local_supplies=0.0 
}
