state={
	id=786
	name="STATE_786" # Mauritanian Desert
	manpower = 124200
	
	state_category = wasteland
	impassable = yes

	history={
		owner = FRA
		add_core_of = BKB
		buildings = {
			infrastructure = 0
		}

	}

	provinces={
		1897 1962 7943 8035 10771 10779 10838
	}

	local_supplies=0.0 
}