state={
	id=858
	name="STATE_858"
	provinces={
		5006 8030 10870 12768 
	}
	history = {
		owner = BKB
		add_core_of = BKB
	}
	manpower=69
	state_category=pastoral
	buildings_max_level_factor=1.000
	local_supplies=0.000
}
