state={
	id=894
	name="STATE_894"
	manpower = 69300
	state_category = wasteland

	history={
		owner = ENG
		buildings = {
			infrastructure = 2

		}
		
		add_core_of = BKB
		

	}
	provinces={
		10957 10978 12921 
	}
	
	buildings_max_level_factor=1.000
	local_supplies=0.000
}
