state={
	id=897
	name="STATE_897"
	manpower = 1386000
	state_category = pastoral 

	history={
		owner = BKB
		buildings = {
			infrastructure = 2
			2123 = {
				naval_base = 1

			}

		}

		add_core_of = BKB

	}
	provinces={
		2123 2159 2180 2202 2217 5164 10972 12971 
	}

	buildings_max_level_factor=1.000
	local_supplies=0.000
}
