state={
	id=905
	name="STATE_905"
	manpower = 1017600
	state_category = pastoral

	history={
		owner = ENG
		buildings = {
			infrastructure = 2
			5210 = {
				naval_base = 2

			}
		}

		victory_points = {
			5210 1 
		}
		add_core_of = BKB

	}

	provinces={
		5196 5210 6020 
	}

	buildings_max_level_factor=1.000
	local_supplies=0.000
}
