state = {
	id = 915
	name = "STATE_915" # Bohuslän
	manpower = 96212
	state_category = rural

	history = {
		victory_points = {
			6310 1
		}
		owner = BKB
		add_core_of = BKB
		buildings = {
			infrastructure = 3
		}
	}



	provinces = {
		171 6310 
	}

	local_supplies=0.000
}
